<?xml version="1.0" encoding="UTF-8" standalone="no"?>
<!-- Created with Inkscape (http://www.inkscape.org/) -->

<svg
   version="1.1"
   id="svg1"
   width="149.33333"
   height="149.33333"
   viewBox="0 0 149.33333 149.33333"
   sodipodi:docname="nkoHehe.svg"
   inkscape:version="1.3 (0e150ed6c4, 2023-07-21)"
   xmlns:inkscape="http://www.inkscape.org/namespaces/inkscape"
   xmlns:sodipodi="http://sodipodi.sourceforge.net/DTD/sodipodi-0.dtd"
   xmlns="http://www.w3.org/2000/svg"
   xmlns:svg="http://www.w3.org/2000/svg">
  <defs
     id="defs1" />
  <sodipodi:namedview
     id="namedview1"
     pagecolor="#000000"
     bordercolor="#000000"
     borderopacity="0.25"
     inkscape:showpageshadow="2"
     inkscape:pageopacity="0.0"
     inkscape:pagecheckerboard="0"
     inkscape:deskcolor="#d1d1d1"
     inkscape:zoom="2.6327102"
     inkscape:cx="-13.674122"
     inkscape:cy="106.35428"
     inkscape:window-width="1366"
     inkscape:window-height="700"
     inkscape:window-x="0"
     inkscape:window-y="0"
     inkscape:window-maximized="1"
     inkscape:current-layer="g9" />
  <g
     inkscape:groupmode="layer"
     inkscape:label="character"
     id="g1">
    <g
       id="g9"
       inkscape:label="nkoHehe">
      <path
         id="path1"
         style="opacity:1;fill:#fdfcfc;fill-opacity:1;stroke:none;stroke-width:37.7953;stroke-linecap:round;stroke-linejoin:round;paint-order:stroke fill markers"
         d="M 124.9668,4.1777344 105.97461,7.2167969 86.982422,12.914062 67.990234,14.814453 55.835938,16.332031 41.630859,10.744141 24.171875,6.4453125 13.160156,4.296875 8.8632812,9.4003906 5.9082031,21.21875 4.8339844,35.453125 8.59375,53.179688 6.4453125,61.238281 3.2226562,79.232422 4.0292969,100.45117 9.9375,115.49219 20.936851,124.3352 7.4355469,149.33398 H 139.92188 l -2.61133,-5.94531 -6.83594,-11.96484 -3.98828,-5.69727 -2.2793,-2.84961 1.13867,-1.89843 6.26758,-3.79883 4.9375,-3.98828 2.46875,-5.88672 1.14063,-3.98828 6.07617,-5.12891 0.95117,-7.027344 -1.33008,-10.824218 -2.46875,-7.78711 -3.03906,-6.267578 -2.2793,-6.457031 -0.75976,-7.027344 L 137.5,43.681641 137.12109,19.371094 134.8418,9.4960938 131.04297,5.3183594 Z"
         sodipodi:nodetypes="cccccccccccccccccccccccccccccccccccccccc" />
      <path
         style="fill:#d8ccc7"
         d="m 6.7265452,146.83693 c 1.4234028,-4.6143 4.4758558,-10.19524 7.9776228,-14.87507 4.037093,-5.39525 6.3717,-8.92752 2.00804,-11.06418 -1.983895,-0.9714 -7.6397972,-4.98828 -9.8778592,-9.0837 C 2.9901503,104.7795 3.8091957,105.71408 3.4629898,87.808126 3.1167001,69.897846 2.1060328,69.142061 5.5031634,62.410755 8.7075578,56.06135 8.7860413,52.373797 7.2347496,48.466045 2.3201501,36.086017 4.082027,11.590178 10.579307,6.3052333 14.196146,3.3632643 14.47094,2.7199043 38.243229,9.6204425 60.775339,16.160985 71.867987,19.362879 86.572096,14.246218 96.959268,10.631742 110.54993,8.1175275 123.62685,5.7270577 l 8.65906,-1.5828802 2.09932,4.7617325 c 2.38816,5.41691 3.85981,6.753044 3.90923,29.298697 0.0451,20.559496 0.001,25.674774 1.85534,27.72378 3.24648,3.587321 5.17589,8.653271 6.54388,19.442876 1.36505,10.766423 -0.26718,15.706487 -4.44824,17.944117 -1.38953,0.74366 -3.47601,4.16914 -3.47601,5.81324 0,3.08804 -6.41111,4.67189 -9.24592,10.7589 l -3.89957,2.92588 5.05608,8.26585 c 1.83954,3.00734 3.54599,8.37127 6.56378,11.91684 l 2.66381,6.33724 H 104.65218 66.666664 V 144 c 0,-6.1009 -1.173364,-6.51722 -6.749366,-2.3947 -5.304846,3.92204 -18.666294,4.85927 -27.306159,1.91538 l -6.203848,-2.11387 -1.495963,3.96326 c -1.472147,3.90016 -1.651939,3.96326 -11.293496,3.96326 -9.5457169,0 -7.7929319,0.4265 -6.8912868,-2.4964 z M 98.700345,117.3261 c 6.200965,-3.22003 10.528045,-4.52426 15.359905,-4.62964 8.91067,-0.19434 15.09459,-2.85439 16.11835,-6.93339 0.93686,-3.73276 -1.05591,-5.67174 -10.05132,-9.779986 -6.24867,-2.853797 -6.9591,-4.993741 -0.89207,-2.687058 9.02787,3.43239 19.78019,0.05278 22.79602,-7.165129 2.10684,-5.042382 1.28962,-13.335171 -1.20832,-12.26144 -9.92319,4.265458 -20.49788,6.405035 -27.85552,5.63601 -8.28166,-0.865604 -19.233589,-5.139891 -26.587964,-10.376668 -4.812379,-3.426715 -4.854079,-4.011183 0.823199,11.537865 5.674913,15.542569 3.748074,29.914226 -4.814785,35.911886 -7.641985,5.35266 -10.432399,2.65627 -24.547757,-23.720591 C 51.846007,81.657044 47.655016,75.325161 45.747734,74.58845 c -3.723286,-1.438164 -5.823005,-5.345949 -4.857105,-9.039555 0.414546,-1.585227 0.158741,-2.88223 -0.568455,-2.88223 -0.727197,0 -3.110598,-0.357685 -5.296449,-0.794855 -3.206435,-0.641287 -4.905252,0.02255 -8.792951,3.436 -6.508152,5.714234 -10.232775,4.696079 -10.232775,-2.797209 0,-7.263109 3.277,-13.011252 8.712399,-15.282306 7.408818,-3.095602 10.814451,-2.386018 17.317391,3.608183 6.063359,5.589009 7.591967,9.958219 3.970209,11.348018 -2.675893,1.026837 -2.552986,6.706861 0.1782,8.23531 4.502367,2.519651 15.155133,-2.158281 15.155133,-6.65505 0,-0.582393 1.95,0.130042 4.333333,1.583189 4.89359,2.983679 7.286712,3.237442 12.355782,1.310185 l 3.52938,-1.341868 -9.576272,-9.658132 C 61.295821,44.887106 57.477537,37.930712 56.37346,27.233242 c -0.864468,-8.37589 -2.418456,-8.969921 -12.040128,-4.602483 -3.116667,1.414707 -5.666667,2.078022 -5.666667,1.474033 0,-0.603989 2.727137,-2.278666 6.060303,-3.721504 4.625132,-2.002095 5.65133,-2.955599 4.333333,-4.026364 C 46.868785,14.576496 26.953057,8.2905176 19.961623,7.1725423 14.789781,6.3455314 14.666666,6.4178531 14.666666,10.282972 c 0,2.17642 1.193003,8.621722 2.651117,14.322893 1.458114,5.701171 2.322703,10.897149 1.92131,11.546617 -0.401393,0.649467 -2.314395,1.18085 -4.251116,1.18085 -3.861074,0 -2.716638,2.094883 1.568201,2.87058 3.586947,0.649357 4.323267,3.796087 0.888266,3.796087 -1.836558,0 -2.777778,0.855235 -2.777778,2.524014 0,1.388209 -0.938029,2.883971 -2.084509,3.323916 -1.14648,0.439946 -1.727608,1.37738 -1.291395,2.083188 0.436213,0.705807 -0.762966,4.980367 -2.6648416,9.499022 -3.5601416,8.45852 -3.5604601,11.903192 -0.0011,11.903192 2.5667376,0 2.5798396,-0.179555 -0.6965538,9.54627 -3.5829047,10.63569 -3.0766561,15.887485 1.7535406,18.191129 3.2104338,1.53115 4.1493028,1.43983 7.3333328,-0.71328 8.830855,-5.971608 13.075249,-7.43135 18.438319,-6.34135 2.867263,0.582748 6.846964,0.924005 8.843779,0.75835 3.814488,-0.316449 11.233177,3.163703 13.981658,6.55888 0.890477,1.1 3.199478,5.9 5.131113,10.66667 1.931635,4.76666 4.204597,9.14709 5.051026,9.73428 0.846429,0.58719 6.054119,0.84422 11.572644,0.57118 8.195843,-0.40551 11.614959,-1.31757 18.666666,-4.97936 z M 56.704864,55.526142 c -3.75688,-2.747098 -1.699443,-6.19281 3.697732,-6.19281 6.024257,0 6.852419,1.201859 3.377178,4.901083 -3.396966,3.615906 -3.796616,3.688873 -7.07491,1.291727 z m -28.704865,5.205753 c 0,-0.81648 -7.829704,-0.0133 -8.739513,0.896505 -0.507791,0.507791 -0.551609,1.891753 -0.09737,3.075471 0.731227,1.905548 1.284955,1.825326 4.831385,-0.699955 2.203026,-1.568693 4.005502,-3.041102 4.005502,-3.272021 z m 12.409375,-5.786006 c -3.028294,-4.056071 -5.742709,-5.283592 -5.742709,-2.596985 0,1.047453 -1.270334,3.047453 -2.822965,4.444444 l -2.822966,2.539983 6.489632,0.666667 c 7.488794,0.769308 8.48189,-0.255229 4.899008,-5.054109 z M 96.940785,51.22968 c 4.046495,-2.748996 6.327135,-3.349512 11.393375,-3 3.48379,0.240342 6.33379,-0.130184 6.33333,-0.82339 -9.6e-4,-1.469599 -6.72937,-8.739625 -8.08852,-8.739625 -0.50717,0 -1.65157,1.761058 -2.54313,3.913461 -1.7613,4.252169 -7.41901,7.013533 -11.94493,5.829979 -2.091647,-0.546978 -2.75758,-0.09326 -2.75758,1.878829 0,2.289457 1.031804,4.377731 2.16301,4.377731 0.211878,0 2.661878,-1.546643 5.444445,-3.436985 z"
         id="path15"
         sodipodi:nodetypes="ssssssssssscscssssscsscccssscsssssssssssssssssssssssssssscssssssssssssssssssssssssssssssssssssssssscsssssssssss" />
      <path
         style="fill:#fba487"
         d="m 6.6187048,148.15232 c 0,-1.60909 6.6719892,-14.04019 9.7734212,-18.17112 3.425709,-4.56285 3.983588,-7.07413 -0.684487,-7.91611 C 13.192145,121.61137 7.6392673,116.79338 3.0281146,106.93313 1.3792505,103.40728 1.3881335,101.246 2.4675064,94.543704 3.3376058,89.140881 5.815565,85.341422 4.9624393,84.488297 2.2882255,81.814083 1.610202,72.197292 4.6970913,64.777806 L 8.2113859,56.331032 7.1957711,47.117178 C 6.6422617,42.095634 5.515442,35.097362 5.515442,31.319666 c 0,-8.812559 2.2762571,-23.6999532 4.994055,-25.8024415 3.542999,-2.7408642 7.278315,-2.0673514 26.55472,3.7026535 16.959071,5.076357 18.343594,6.317779 30.396528,6.044664 8.939187,-0.202559 16.179067,-0.863291 20.364386,-2.501674 13.228809,-5.1785441 36.554219,-7.5579494 45.184349,-8.3093536 1.08341,-0.09433 0.72774,3.6255848 2.00586,5.9624156 1.96807,3.598305 2.8936,7.192765 2.8936,27.680559 0,20.659139 0.22829,24.932703 2.11884,27.046502 3.24851,3.632102 7.26348,16.378692 7.47896,26.197453 0.16972,7.734122 -0.63314,7.264638 -3.79971,9.988406 -1.93227,1.66207 -4.17792,4.64589 -4.17792,6.28255 0,1.83223 -0.80093,6.71558 -5.78808,9.68397 l -8.73377,5.19843 3.98637,7.17756 c 1.04398,1.87971 4.01472,6.10057 7.46996,10.93535 l 3.19791,8.72662 h -11.541 -14.57969 L 108.08637,143 c -6.92723,-8.04345 -12.587517,-19.03219 -10.749971,-20.86974 0.736805,-0.7368 6.587531,-1.6884 13.001621,-2.11465 8.17142,-0.54303 13.285,-1.62989 17.08451,-3.63119 10.02526,-5.28057 11.02198,-9.51491 3.44211,-14.62298 l -4.45023,-2.999012 6.57063,0.778193 c 6.07507,0.719499 6.79871,0.489629 9.59475,-3.047882 2.58001,-3.264185 2.90605,-4.842143 2.22007,-10.74478 -0.44223,-3.805288 -1.36652,-8.398114 -2.05398,-10.20628 l -1.24994,-3.287575 -5.0813,2.512328 c -14.794,7.314531 -34.65609,5.271918 -48.089156,-4.945478 -5.752342,-4.375321 -7.644891,-2.99636 -4.462649,3.251603 3.659818,7.185629 6.803829,18.62176 6.803829,24.748476 0,10.938067 -9.079222,22.375537 -16.014659,20.174307 -2.794719,-0.88701 -8.131316,-9.29576 -18.129654,-28.56647 -4.309124,-8.305369 -7.779206,-13.282206 -10.226282,-14.666666 -4.250328,-2.404671 -6.123233,-7.531111 -3.602211,-9.859827 1.333925,-1.232173 1.532657,-1.094977 0.925631,0.639013 -0.446088,1.274263 0.294177,3.173828 1.750437,4.491725 3.371511,3.051175 10.978422,1.639698 14.36483,-2.665423 2.348394,-2.985498 2.764337,-3.071481 6.210184,-1.283754 4.768995,2.474184 10.20111,2.43993 13.466884,-0.08492 2.445069,-1.890343 2.458293,-2.078796 0.239164,-3.408359 -2.17859,-1.305276 -4.80179,-3.994474 -15.355564,-15.741904 -4.035104,-4.491483 -8.295426,-16.442144 -8.295426,-23.269561 0,-2.941026 -0.601968,-3.579195 -3.376158,-3.579195 -1.856887,0 -5.479115,0.878672 -8.049397,1.952604 -2.570281,1.073932 -4.342653,1.417705 -3.938604,0.763941 0.404049,-0.653765 2.857349,-1.889223 5.451778,-2.745461 2.594429,-0.856239 4.489542,-2.250012 4.211362,-3.097274 C 49.637987,14.860599 23.4003,6.822262 17.203752,6.7345541 10.49849,6.6396456 9.0836251,10.157282 12.12229,19.368085 c 1.25832,3.814223 3.245573,8.786972 4.416116,11.050553 2.918946,5.644619 2.70168,6.663259 -1.538407,7.212724 l -3.666666,0.475156 4.666666,2.187081 c 4.395956,2.06021 4.492638,2.24017 1.666667,3.102249 -1.65,0.503342 -3,1.745189 -3,2.759659 0,1.01447 -0.669979,1.844491 -1.488842,1.844491 -0.818863,0 -1.183949,-1.16591 -0.811303,-2.590911 0.402443,-1.538942 -0.344551,-3.515888 -1.839783,-4.869055 -1.9159088,-1.733874 -2.1608957,-2.707612 -1.025437,-4.075756 0.820536,-0.988686 2.382611,-1.797611 3.471277,-1.797611 1.364432,0 1.679122,-0.724922 1.012903,-2.333333 C 13.453913,31.049999 12.305573,27.319839 11.433616,24.044088 7.8404023,10.545186 5.2626606,30.027973 8.7068494,44.653214 L 11.098454,54.80881 8.0056908,62.270657 c -2.8530478,6.883491 -3.1811733,9.964382 -2.3852523,22.396007 0.1408526,2.2 -0.2232414,7.155919 -0.8090978,11.013153 C 3.7901687,102.40314 3.916701,102.85229 7.8730735,106.5481 10.142883,108.66842 12,111.69791 12,113.2803 c 0,1.6276 0.594253,2.50981 1.368344,2.03139 0.752589,-0.46512 1.251744,-2.75053 1.109233,-5.07869 -0.431613,-7.05111 1.196201,-9.51073 8.863829,-13.393207 5.864945,-2.969694 8.206563,-3.503235 11.664946,-2.657877 2.379839,0.581721 6.223179,0.887983 8.540755,0.680582 9.382101,-0.839611 18.244863,9.551702 23.63631,27.712832 2.373949,7.99667 2.946493,26.758 0.816581,26.758 -0.733334,0 -1.333334,-3.10459 -1.333334,-6.89909 v -6.89908 l -3.018196,2.83545 c -7.174429,6.74002 -19.540168,8.76435 -30.315136,4.96272 -7.375508,-2.60223 -7.170728,-2.64812 -8.925197,2 -1.481949,3.92613 -1.684333,4 -10.958983,4 -5.1970338,0 -6.8304472,-0.78997 -6.8304472,-1.18101 z M 96.267496,51.809522 c 2.9095,-2.071747 5.989854,-2.857143 11.205824,-2.857143 8.23979,0 9.20575,-1.727857 3.92062,-7.012986 -3.14609,-3.146086 -8.41654,-4.672684 -6.73418,-1.95057 0.44942,0.727186 -0.74953,2.888818 -2.66434,4.803627 -2.731535,2.731539 -4.470248,3.366035 -8.071778,2.945577 -3.964045,-0.46278 -4.590312,-0.147965 -4.590312,2.307483 0,5.267781 1.483555,5.645189 6.934166,1.764012 z M 135.6891,27.536398 C 135.36504,22.291379 134.35319,16.199999 133.44056,14 l -1.65934,-4.0000003 -2.44639,4.6666663 c -2.016,3.845653 -2.11405,4.742511 -0.55728,5.097766 2.45578,0.560412 2.43989,6.118611 -0.0233,8.162907 -1.63301,1.355284 -1.3942,2.445197 1.63449,7.459388 4.58231,7.586326 6.11399,5.317777 5.3004,-7.850329 z M 17.322745,67.320573 c -2.428658,-2.926353 -0.794952,-12.291247 2.814451,-16.13328 4.325128,-4.603888 12.129691,-6.473922 16.844139,-4.035986 6.845094,3.539735 12.660408,12.321957 9.489657,14.331172 -2.425809,1.537167 -8.006581,1.447786 -10.470993,-0.167702 -1.434221,-0.940169 -0.81989,-1.084988 2.171626,-0.511924 5.928799,1.135738 6.595325,-1.273994 1.771616,-6.405028 -3.120746,-3.319573 -4.322726,-3.926043 -4.902466,-2.473584 -1.856687,4.651677 -7.112779,8.269181 -11.389945,7.839126 -3.30679,-0.332487 -4.385549,0.131382 -4.75561,2.044924 -0.767159,3.966885 1.957509,5.706613 4.844928,3.093535 3.848206,-3.482578 5.091482,-2.625595 1.593184,1.098172 -3.598852,3.830803 -5.647055,4.168457 -8.010587,1.320575 z M 57.190266,54.728211 c -2.720044,-2.279904 -2.895482,-2.871547 -1.190268,-4.014042 2.963255,-1.985386 9.333333,-1.703842 9.333333,0.412513 0,0.986342 -1.114379,2.801849 -2.476398,4.034459 -2.326919,2.105833 -2.668969,2.0797 -5.666667,-0.43293 z"
         id="path14"
         sodipodi:nodetypes="ssssssscsssssssssssssscsscccssssscsssscssssssssssssssssssssssssscssssssssssscssssssssssssscssssssssssssscscssssccssssssssssssssssss" />
      <path
         style="fill:#ae9995"
         d="m 6.1486809,148.55519 c 0,-1.60909 7.4268901,-14.77542 10.5283221,-18.90635 3.425709,-4.56285 3.223915,-6.93169 -1.44416,-7.77367 C 12.717349,121.42145 8.6838182,116.93582 4.0726655,107.07557 2.4238015,103.54972 2.1003273,102.57543 3.1797003,95.873133 4.0497997,90.47031 4.3436977,85.721259 3.490572,84.868134 0.81635823,82.19392 1.8415423,70.637321 4.9656765,63.233442 L 8.2588655,55.428919 6.626016,45.597831 C 5.7982737,40.614146 5.3730032,33.815413 5.3730032,30.037717 c 0,-8.812559 2.8047022,-22.2775421 5.5224998,-24.3800304 3.543,-2.7408642 7.491853,-1.6956608 26.768258,4.0743441 16.959071,5.0763573 20.307947,5.9005863 32.360881,5.6274713 8.939187,-0.202559 15.67029,-1.69069 19.855609,-3.329073 13.228809,-5.1785446 38.061459,-9.303993 42.323469,-6.6368667 0.92188,0.5769048 1.72342,3.017894 3.00154,5.3547247 1.96807,3.598305 2.4188,6.955367 2.4188,27.443161 0,20.659139 0.89301,25.834815 2.78356,27.948614 3.24851,3.632102 6.57473,14.957679 6.79021,24.77644 0.16972,7.734122 -0.65659,7.68858 -3.82316,10.412348 -1.93227,1.66207 -4.69362,5.71925 -4.69362,7.35591 0,1.83223 -2.77076,3.46218 -6.01436,8.27488 l -7.59228,5.13128 4.12066,6.70754 c 1.12549,1.83206 3.05232,7.2758 6.73135,11.94254 l 3.68504,8.59233 h -0.15797 c -2.56331,0 -3.59035,-1.04129 -4.87938,-4.94711 -1.35587,-4.10831 -9.95042,-19.05289 -10.95722,-19.05289 -0.16564,0 -2.27299,-0.56551 -4.68299,-1.25669 l -4.38183,-1.2567 4.86766,6.63109 c 2.67722,3.6471 6.00056,9.61261 7.3852,13.25669 l 2.51753,6.62561 h -7.88114 -7.88115 l -5.60339,-7 c -3.08187,-3.85 -6.87779,-9.60211 -8.435377,-12.78247 -2.790515,-5.69782 -2.794251,-5.81006 -0.255184,-7.66667 C 100.89188,120.69548 105.21037,120 110.96583,120 c 7.00962,0 10.59899,-0.74804 15.49558,-3.22933 11.00772,-5.57803 12.22764,-9.73636 4.40323,-15.00923 l -4.45023,-2.999012 6.57063,0.778193 c 6.07507,0.719499 6.79871,0.489629 9.59475,-3.047882 2.61778,-3.311973 2.91046,-4.803662 2.17815,-11.101506 C 143.69727,76.269507 139.75586,68.271431 133.1358,61.807119 128.46647,57.247638 128,56.156604 128,49.795029 c 0,-3.848409 -0.64154,-9.988478 -1.42564,-13.644597 -1.04988,-4.895438 -1.01893,-7.407402 0.11741,-9.530689 1.46125,-2.730354 1.32477,-2.835259 -2.57436,-1.978865 -4.0348,0.88619 -5.22466,-0.188587 -2.99746,-2.707545 0.61597,-0.696667 2.51071,-3.666667 4.21052,-6.6 l 3.09056,-5.3333333 -6.12213,5.8575293 -6.12213,5.85753 -7.75505,-1.512268 C 94.054114,17.401048 71.022832,16.917537 57.714502,19.13826 50.95748,20.265785 44.135074,21.880797 42.5536,22.727177 c -1.700474,0.910066 -2.529662,0.979443 -2.029267,0.169787 0.465377,-0.752996 2.968855,-2.069643 5.563284,-2.925881 2.594429,-0.856239 4.489542,-2.250012 4.211362,-3.097274 C 49.637987,14.860599 23.4003,6.822262 17.203752,6.7345541 10.49849,6.6396456 9.0836251,10.157282 12.12229,19.368085 c 1.25832,3.814223 3.245573,8.786972 4.416116,11.050553 2.918946,5.644619 2.70168,6.663259 -1.538407,7.212724 l -3.666666,0.475156 4.666666,2.187081 c 4.395956,2.06021 4.492638,2.24017 1.666667,3.102249 -1.65,0.503342 -3,1.745189 -3,2.759659 0,1.01447 -0.669979,1.844491 -1.488842,1.844491 -0.818863,0 -1.183949,-1.16591 -0.811303,-2.590911 0.402443,-1.538942 -0.344551,-3.515888 -1.839783,-4.869055 -1.9159088,-1.733874 -2.1608957,-2.707612 -1.025437,-4.075756 0.820536,-0.988686 2.382611,-1.797611 3.471277,-1.797611 1.365073,0 1.678913,-0.724167 1.011222,-2.333333 C 13.451306,31.049999 12.404211,27.599999 11.656922,24.666666 9.4789123,16.117333 8.3082434,16.436963 7.2995096,25.856378 6.6015514,32.373814 6.9734062,37.292403 8.7270819,44.739128 L 11.098454,54.80881 8.0056908,62.270657 c -2.8530478,6.883491 -3.1811733,9.964382 -2.3852523,22.396007 0.1408526,2.2 -0.2232414,7.155919 -0.8090978,11.013153 C 3.7901687,102.40314 3.916701,102.85229 7.8730735,106.5481 10.142883,108.66842 12,111.69791 12,113.2803 c 0,1.6276 0.594253,2.50981 1.368344,2.03139 0.752589,-0.46512 1.251744,-2.75053 1.109233,-5.07869 -0.431613,-7.05111 1.196201,-9.51073 8.863829,-13.393207 5.864945,-2.969694 8.206563,-3.503235 11.664946,-2.657877 2.379839,0.581721 6.223179,0.887983 8.540755,0.680582 9.382101,-0.839611 18.244863,9.551702 23.63631,27.712832 2.373949,7.99667 2.946493,26.758 0.816581,26.758 -0.733334,0 -1.340455,-2.55 -1.349159,-5.66667 -0.01813,-6.49333 -3.171216,-19.38704 -5.249133,-21.46496 -0.770939,-0.77094 -1.401708,-2.91931 -1.401708,-4.77417 0,-3.75463 -7.026082,-14.84452 -10.962256,-17.3027 -3.03988,-1.898438 -7.70441,-0.708744 -7.70441,1.96502 0,2.78051 -2.344329,2.33713 -4,-0.75652 -0.992163,-1.853875 -2.791764,-2.666667 -5.90426,-2.666667 -4.916931,0 -7.206206,3.055397 -4.622151,6.168997 1.184238,1.42692 1.032953,1.831 -0.685509,1.831 -1.212808,0 -2.550468,-0.9 -2.972578,-2 -0.422109,-1.1 -1.603278,-2 -2.62482,-2 -2.552064,0 -2.390177,6.53459 0.233715,9.43396 1.752214,1.93617 1.811619,2.75806 0.366593,5.07191 -1.488661,2.38373 -1.364371,3.03352 0.908938,4.75199 1.448373,1.09486 4.062407,2.00975 5.808965,2.03307 2.901698,0.0388 3.117008,0.47893 2.496634,5.10416 -0.373408,2.78397 -2.244276,8.48397 -4.157484,12.66667 l -3.478561,7.60491 h -9.351407 c -5.143274,0 -7.2027261,-0.3871 -7.2027261,-0.77814 z M 104.97222,121.86111 c -0.44306,-0.44306 -1.59306,-0.49043 -2.55556,-0.10527 -1.06364,0.42564 -0.7477,0.74158 0.80556,0.80556 1.40555,0.0579 2.19305,-0.25724 1.75,-0.70029 z M 135.6891,27.536398 C 135.36504,22.291379 134.35319,16.199999 133.44056,14 l -1.65934,-4.0000003 -2.43799,4.6666663 c -2.0524,3.928594 -2.14054,4.835304 -0.55728,5.73292 2.48353,1.408015 2.38695,4.831052 -0.2175,7.708937 -1.92398,2.125969 -1.7939,2.778345 1.5664,7.856105 3.09713,4.680082 3.85655,5.194647 4.90404,3.322888 0.68168,-1.218096 0.97427,-6.506099 0.65021,-11.751118 z M 130,7.9999997 c 0.45322,-0.7333333 0.18863,-1.3333333 -0.58798,-1.3333333 -0.77661,0 -1.41202,0.6 -1.41202,1.3333333 0,0.7333333 0.26459,1.3333333 0.58797,1.3333333 0.32339,0 0.9588,-0.6 1.41203,-1.3333333 z M 71.602999,115.49733 C 69.988015,113.7542 64.466664,104.34945 59.333331,94.597904 52.808309,82.202628 48.885521,76.235769 46.296069,74.767238 c -4.250912,-2.410779 -6.122661,-7.536673 -3.602211,-9.864861 1.333925,-1.232173 1.532657,-1.094977 0.925631,0.639013 -0.446088,1.274263 0.294177,3.173828 1.750437,4.491725 3.371511,3.051175 10.978422,1.639698 14.36483,-2.665423 2.348394,-2.985498 2.764337,-3.071481 6.210184,-1.283754 6.836276,3.546702 13.50828,2.19446 15.540077,-3.149572 0.939475,-2.471006 1.675634,-2.973714 2.762732,-1.886616 1.087099,1.087098 0.934582,2.317442 -0.57238,4.617357 -1.76836,2.698857 -1.799157,3.590123 -0.221215,6.401795 3.184212,5.673822 7.21251,20.001179 7.21251,25.652576 0,7.162552 -4.633783,16.516952 -9.403669,18.983552 -5.103273,2.63901 -6.227997,2.49863 -9.659996,-1.2057 z m 11.60301,-4.64694 c 1.962774,-2.83229 3.91535,-7.28589 4.339058,-9.89689 0.80236,-4.944363 -1.735269,-18.286836 -3.478006,-18.286836 -2.421322,0 -11.958162,8.175703 -14.686679,12.590535 -2.669827,4.319871 -2.809304,5.293081 -1.285737,8.971301 2.173444,5.24715 7.628664,11.7715 9.842543,11.7715 0.935077,0 3.306046,-2.31733 5.268821,-5.14961 z M 17.322745,67.320573 c -2.428658,-2.926353 -0.794952,-12.291247 2.814451,-16.13328 4.325128,-4.603888 12.129691,-6.473922 16.844139,-4.035986 6.845094,3.539735 12.660408,12.321957 9.489657,14.331172 -2.425809,1.537167 -8.006581,1.447786 -10.470993,-0.167702 -1.434221,-0.940169 -0.81989,-1.084988 2.171626,-0.511924 5.928799,1.135738 6.595325,-1.273994 1.771616,-6.405028 -3.120746,-3.319573 -4.322726,-3.926043 -4.902466,-2.473584 -1.856687,4.651677 -7.112779,8.269181 -11.389945,7.839126 -3.30679,-0.332487 -4.385549,0.131382 -4.75561,2.044924 -0.767159,3.966885 1.957509,5.706613 4.844928,3.093535 3.848206,-3.482578 5.091482,-2.625595 1.593184,1.098172 -3.598852,3.830803 -5.647055,4.168457 -8.010587,1.320575 z M 57.190266,54.728211 c -2.720044,-2.279904 -2.895482,-2.871547 -1.190268,-4.014042 2.963255,-1.985386 9.333333,-1.703842 9.333333,0.412513 0,0.986342 -1.114379,2.801849 -2.476398,4.034459 -2.326919,2.105833 -2.668969,2.0797 -5.666667,-0.43293 z M 88.33333,56.45029 c -1.021042,-0.411999 -1.666666,-3.251701 -1.666666,-7.330634 0,-5.542006 0.636897,-7.295016 3.799382,-10.457501 4.800071,-4.800071 11.853784,-6.274465 17.038644,-3.56148 C 112.4646,37.695959 120,45.140081 120,47.44463 c 0,3.135664 -4.51815,4.5655 -9.80971,3.10443 C 103.99757,48.839166 103.86658,47.604 110,48.754635 c 3.80777,0.714343 4.66666,0.468911 4.66666,-1.333521 0,-2.823987 -5.88324,-8.754449 -8.68475,-8.754449 -1.17661,0 -1.77158,0.594971 -1.32215,1.322158 0.44942,0.727186 -0.74953,2.888818 -2.66434,4.803627 -2.731535,2.731539 -4.470248,3.366035 -8.071778,2.945577 -4.024953,-0.469891 -4.590312,-0.168015 -4.590312,2.451016 0,4.37736 2.177428,5.007575 6.54826,1.895268 5.85567,-4.169607 7.49148,-3.28974 2.322115,1.249021 -4.424682,3.884922 -6.411927,4.512472 -9.870375,3.116958 z"
         id="path13"
         sodipodi:nodetypes="ssssssscsssssssssssssscsscsssscsscccsssssscsssssssssscccsssssssssscsssssssssssscsssssssssssssssssssssssssscsscsssssssscsssssssssssssssssssssssssssssssssssssssssssssssssssssssssssssssssss" />
      <path
         style="fill:#d8886b"
         d="m 8.1175045,144.40048 c 1.1841887,-2.73104 3.6103475,-7.33502 6.1473895,-11.17374 2.537041,-3.83872 5.082827,-8.28785 5.082827,-8.65596 0,-0.36811 -3.72084,-3.20123 -6.216841,-4.24412 -2.606428,-1.08904 -4.2796515,-4.36648 -4.8367982,-6.15939 -0.5335422,-1.71694 -2.4972529,-3.60423 -3.9534632,-5.6712 C 1.6150526,104.62736 2.6951729,98.99043 4.2964708,89.512433 4.8039857,86.508479 3.3628123,82.436828 2.501753,81.904664 -0.50163012,80.048471 1.1408105,71.181365 5.4239094,62.300633 8.3285217,56.278105 9.1712493,51.728367 8.2350822,50.574095 2.3726501,43.345855 4.1154435,12.94299 10.611659,5.6647141 13.746073,2.1529573 16.581922,3.7805585 38.387774,9.3526949 L 58.583703,15.672086 73.064032,14.594788 C 81.246883,13.986006 91.221139,12.038345 97.998044,9.8998118 112.32112,5.3799929 129.11596,3.074168 132.2313,6.1895073 c 4.48442,4.4844257 5.84518,9.2924607 5.64541,32.4220747 -0.17554,20.324569 -0.37051,23.865468 1.79747,26.641672 3.25531,4.168613 7.1863,18.551221 7.1863,27.828161 0,6.395599 -0.67495,6.251932 -3.52325,8.492405 -1.83333,1.4421 -4.09524,4.76508 -4.09799,5.75954 -0.01,3.44886 -4.82067,8.44464 -8.77789,12.09387 l -4.25628,2.89182 3.43626,7.12959 c 2.33192,4.8383 12.15516,17.65337 10.55249,19.25604 -0.74283,0.74283 -0.014,0.62865 -1.42376,0.62865 -1.77487,0 -3.06543,-1.5216 -4.19595,-4.94711 -1.35587,-4.10831 -9.95042,-19.05289 -10.95722,-19.05289 -0.16564,0 -2.27299,-0.56551 -4.68299,-1.25669 l -4.38183,-1.2567 4.86766,6.63109 c 2.67722,3.6471 6.00056,9.61261 7.3852,13.25669 l 2.51753,6.62561 h -7.88114 -7.88115 l -5.60339,-7 c -3.08187,-3.85 -6.87779,-9.60211 -8.435377,-12.78247 -2.790515,-5.69782 -2.794251,-5.81006 -0.255184,-7.66667 1.417231,-1.03631 3.212111,-1.87501 3.988621,-1.86378 0.7765,0.0112 0.53553,0.57469 -0.53548,1.25214 -1.40381,0.88794 -0.65953,1.21764 2.66666,1.18127 7.17241,-0.0784 18.0193,-3.18526 24.61434,-7.05022 6.77759,-3.97192 7.89485,-8.17505 3.37464,-12.69527 -2.61112,-2.61111 -2.60453,-2.6209 1.24494,-1.85101 3.042,0.6084 4.64085,0.003 7.47319,-2.829243 3.38267,-3.382673 3.55431,-4.127083 2.80407,-12.161245 C 143.99809,76.238481 140.23362,68.66752 132.72821,61.392982 128.49412,57.289146 128,56.078035 128,49.804071 c 0,-3.853382 -0.64154,-9.99752 -1.42564,-13.653639 -1.04988,-4.895438 -1.01893,-7.407402 0.11741,-9.530689 1.46125,-2.730354 1.32477,-2.835259 -2.57436,-1.978865 -4.0348,0.88619 -5.22466,-0.188587 -2.99746,-2.707545 0.61597,-0.696667 2.51071,-3.666667 4.21052,-6.6 l 3.09056,-5.3333333 -6.10229,5.8380613 -6.10229,5.838062 -9.10823,-1.802982 C 97.363468,17.944156 58.228007,17.399098 51.333332,19.096337 48.764826,19.728618 47.99092,19.642693 49.170819,18.85624 50.181437,18.182619 50.632308,17.023099 50.172756,16.279527 49.25431,14.79345 36.162886,10.584561 22.664156,7.4355212 12.253662,5.0069178 11.634844,5.4144767 8.7287966,16.613464 6.0924931,26.772945 6.1052641,37.625549 8.7640586,46.578681 10.806533,53.456437 10.771621,53.883714 7.4307253,62.896962 3.8187247,72.641612 3.2321089,77.377514 5.1775228,81.087653 5.8712415,82.410658 5.8019978,86.717947 5.0089917,91.571091 3.4116055,101.34699 4.3440065,106.17296 8.057879,107.3517 c 1.6123472,0.51174 3.035115,2.4466 3.496901,4.75553 C 11.982984,114.24825 12.858333,116 13.5,116 c 1.229619,0 1.538065,-2.08879 1.279785,-8.66667 -0.200104,-5.09625 0.634665,-6.16845 7.573695,-9.727819 10.790708,-5.535089 29.640884,-2.910566 35.951931,5.005609 0.901311,1.13055 3.496633,6.80371 5.767382,12.60703 3.219193,8.22723 4.255398,13.22017 4.704103,22.66666 0.620875,13.07112 -0.562494,11.94037 -3.367898,-3.21815 -0.882173,-4.76666 -2.460087,-9.99555 -3.506475,-11.61975 -1.046389,-1.6242 -1.902525,-4.31181 -1.902525,-5.97247 0,-3.46998 -7.197363,-14.5984 -10.962256,-16.94961 -3.03988,-1.898438 -7.70441,-0.708744 -7.70441,1.96502 0,2.78051 -2.344329,2.33713 -4,-0.75652 -0.992163,-1.853875 -2.791764,-2.666667 -5.90426,-2.666667 -4.916931,0 -7.206206,3.055397 -4.622151,6.168997 1.184238,1.42692 1.032953,1.831 -0.685509,1.831 -1.212808,0 -2.550468,-0.9 -2.972578,-2 -0.422109,-1.1 -1.603278,-2 -2.62482,-2 -2.552064,0 -2.390177,6.53459 0.233715,9.43396 1.752214,1.93617 1.811619,2.75806 0.366593,5.07191 -1.488661,2.38373 -1.364371,3.03352 0.908938,4.75199 1.448373,1.09486 4.062407,2.00975 5.808965,2.03307 2.903087,0.0388 3.117161,0.47779 2.494958,5.11666 -0.37433,2.79084 -2.296904,8.49084 -4.272387,12.66666 l -3.591787,7.59242 H 13.218611 5.9786015 Z M 135.94163,30.254643 C 135.88054,20.21755 132.56049,7.9014477 129.66666,6.9769169 128.75,6.6840569 128,7.1298544 128,7.9675779 c 0,0.8377236 0.6,1.1523134 1.33333,0.6990885 2.10416,-1.3004425 1.56575,1.6506676 -1.34048,7.3473476 -2.10929,4.13454 -2.25242,5.079406 -0.67791,4.47521 3.03023,-1.162808 3.94279,3.076763 1.47347,6.845428 -2.06541,3.152214 -1.99951,3.573901 1.34944,8.634502 1.93649,2.926241 4.04768,4.994869 4.69152,4.596952 0.64384,-0.397917 1.14436,-5.038076 1.11226,-10.311463 z M 71.624612,114.76967 C 69.821105,112.62633 64.6276,103.77633 60.083489,95.103005 55.539378,86.429684 50.211638,77.968427 48.244067,76.300212 46.276496,74.631997 43.916665,72.658341 42.999999,71.91431 42.083332,71.170279 41.3807,69.235183 41.438595,67.614096 c 0.06898,-1.931597 0.351613,-2.25813 0.820045,-0.947432 2.267573,6.344799 10.824384,7.122102 16.451983,1.494504 3.569057,-3.569058 4.087908,-3.709607 7.383178,-2 6.690394,3.471018 13.377756,2.068998 15.391216,-3.226802 0.942541,-2.47907 1.673654,-2.975694 2.768671,-1.880677 1.095017,1.095016 0.957868,2.286243 -0.519371,4.511085 -1.839836,2.77094 -1.698753,3.77139 1.691082,11.991824 7.141979,17.31948 6.12475,30.097162 -3.007795,37.781692 -5.086749,4.28022 -6.788398,4.19057 -10.792992,-0.56862 z m 11.581397,-3.91928 c 1.962774,-2.83229 3.91535,-7.28589 4.339058,-9.89689 0.80236,-4.944363 -1.735269,-18.286836 -3.478006,-18.286836 -2.421322,0 -11.958162,8.175703 -14.686679,12.590535 -2.669827,4.319871 -2.809304,5.293081 -1.285737,8.971301 2.173444,5.24715 7.628664,11.7715 9.842543,11.7715 0.935077,0 3.306046,-2.31733 5.268821,-5.14961 z M 74.666664,71.999998 c 0,-0.733334 -0.63541,-1.333334 -1.412022,-1.333334 -0.776613,0 -1.041203,0.6 -0.587978,1.333334 0.453225,0.733333 1.088635,1.333333 1.412023,1.333333 0.323387,0 0.587977,-0.6 0.587977,-1.333333 z M 16.636425,66.617733 c -1.77573,-2.873191 1.050937,-12.510226 4.756217,-16.215506 3.030332,-3.030332 4.916635,-3.735562 9.991632,-3.735562 5.50973,0 6.794484,0.587811 10.769231,4.927223 5.429318,5.927434 5.79406,9.367152 1.117733,10.540836 -1.867485,0.468709 -3.767485,0.48014 -4.222222,0.0254 -0.454737,-0.454737 0.473205,-0.826795 2.062094,-0.826795 3.638375,0 3.684478,-2.628949 0.125448,-7.153521 -3.314892,-4.214203 -7.903226,-4.723483 -7.903226,-0.877216 0,3.807408 -5.819579,7.200155 -10.682241,6.227622 -3.709383,-0.741876 -3.984425,-0.523069 -3.984425,3.169782 0,4.539707 1.278842,4.885058 6.380244,1.722979 l 3.619756,-2.243688 -2.944249,2.910355 c -3.113319,3.077478 -7.656221,3.841507 -9.085992,1.528089 z M 88.33333,56.45029 c -1.021042,-0.411999 -1.666666,-3.251701 -1.666666,-7.330634 0,-5.542006 0.636897,-7.295016 3.799382,-10.457501 4.800071,-4.800071 11.853784,-6.274465 17.038644,-3.56148 C 112.4646,37.695959 120,45.140081 120,47.44463 c 0,2.887673 -4.49739,4.562015 -8.79789,3.275381 l -3.86878,-1.157472 4.33333,-0.114604 c 5.236,-0.138476 5.39177,-1.318789 0.88148,-6.678969 C 108.57949,38.052498 104,37.266919 104,41.302595 c 0,3.807407 -5.819583,7.200154 -10.682245,6.227622 -3.709383,-0.741877 -3.984425,-0.523069 -3.984425,3.169781 0,4.784129 3.602321,5.422723 7.333333,1.3 1.327315,-1.466666 3.241186,-2.666666 4.253047,-2.666666 1.01186,0 -0.21034,1.8 -2.716005,4 -4.424682,3.884922 -6.411927,4.512472 -9.870375,3.116958 z M 56.018337,54.022096 c -1.363841,-1.643329 -1.014251,-2.216387 2.066672,-3.387752 6.213644,-2.362424 10.189496,1.031096 4.669311,3.985409 -3.472759,1.858564 -4.794854,1.74126 -6.735983,-0.597657 z M 13.417848,45.14265 c -0.04648,-1.938208 -0.984515,-3.869377 -2.084515,-4.291487 -3.1459577,-1.207217 -2.3370953,-4.715753 1.29748,-5.627974 3.109442,-0.78042 3.191994,-1.031603 1.447641,-4.404809 -1.017411,-1.967457 -2.228645,-5.956461 -2.69163,-8.864454 -0.774054,-4.861805 -0.622994,-4.703204 1.877275,1.97099 1.495487,3.992037 3.322854,7.862037 4.060817,8.599999 2.640463,2.640463 1.505723,5.150635 -2.023406,4.475999 -5.098745,-0.974687 -5.3380137,1.354398 -0.362465,3.52829 2.416858,1.055962 3.624953,1.968875 2.684655,2.028696 -0.940297,0.05982 -2.252265,1.458765 -2.915484,3.108765 -1.175917,2.925524 -1.207951,2.912515 -1.290368,-0.524015 z"
         id="path12"
         sodipodi:nodetypes="sssssssssssscssssssscscsssssscsscccssssssssscsssssssscccsssssssssssssssssssssssssssssssscsscccssssssssssssssssssssssssssssssssssssssssssssssssscssssssssscsssssssssssssssssssssssss" />
      <path
         style="fill:#9d5e59"
         d="m 9.7290152,140.23741 c 1.1394658,-2.75 1.1930818,-3.1048 3.7301238,-6.94352 2.537041,-3.83872 6.090021,-8.40536 6.090021,-8.77347 0,-0.36811 -3.317962,-2.68085 -5.813963,-3.72374 -2.606428,-1.08904 -4.3718158,-3.97116 -4.9289625,-5.76407 C 8.2726923,113.31567 5.6476416,110.40966 4.1914313,108.34269 1.4658653,104.47398 1.7891075,99.874852 3.3904054,90.396855 3.8979203,87.392901 3.0956248,83.262829 2.2345655,82.730665 -0.76881757,80.874472 0.76714336,70.920926 5.0502423,62.040194 7.9548546,56.017666 8.365494,49.512539 7.4293269,48.358267 1.5668948,41.130027 4.9184035,12.882593 11.414619,5.6043163 14.549033,2.0925595 16.74059,3.9688177 38.564775,9.4687184 L 58.247971,15.739232 72.526862,14.460495 C 80.69962,13.72859 91.221139,11.848427 97.998044,9.7098935 112.32112,5.1900746 129.18311,2.8727291 132.29845,5.9880684 c 4.48442,4.4844256 5.97947,9.0238756 5.7797,32.1534896 -0.17554,20.324569 -0.12694,24.432428 2.04104,27.208632 3.25531,4.168613 7.0079,17.560319 7.0079,26.837259 0,6.395599 -1.08935,7.127629 -3.93765,9.368101 -1.83333,1.4421 -4.5442,4.91287 -4.54695,5.90733 -0.01,3.44886 -6.12737,7.59973 -9.3409,11.91826 l -4.72699,2.54795 5.23838,8.0424 c 2.93136,4.50047 9.57311,15.25804 9.57311,17.52456 0,0.34576 0.74724,1.83728 -0.71943,1.83728 -1.46666,0 -2.66666,-0.83907 -2.66666,-1.86461 0,-2.65634 -7.65685,-16.89911 -11.01743,-20.49392 -1.57363,-1.68331 -5.22804,-3.41385 -8.23866,-3.90141 l -5.41058,-0.87622 6.29873,-1.61828 c 3.4643,-0.89005 9.0143,-3.20971 12.33333,-5.15479 6.81343,-3.99294 7.9381,-8.18727 3.40961,-12.71577 -2.61112,-2.61111 -2.60453,-2.6209 1.24494,-1.85101 3.042,0.6084 4.64085,0.003 7.47319,-2.829243 3.37866,-3.378663 3.55371,-4.133501 2.80872,-12.111403 -0.82515,-8.836404 -3.29826,-15.15405 -7.90578,-20.195595 -2.5456,-2.785388 -2.64235,-4.054377 -1.77906,-23.333332 0.74637,-16.667834 0.52986,-21.654505 -1.18668,-27.33047 -1.15479,-3.818497 -2.57896,-7.2389699 -3.16482,-7.6010516 -1.52149,-0.9403332 -27.72555,2.7412046 -34.865513,4.8984276 l -6,1.812803 8,1.993866 c 7.922933,1.974659 7.755963,1.993118 -17.333333,1.916272 -13.933333,-0.04268 -27.133332,0.390631 -29.333332,0.962908 -2.540004,0.66072 -3.329319,0.593464 -2.162513,-0.184262 1.010618,-0.673621 1.461489,-1.833141 1.001937,-2.576713 C 49.25431,14.79345 36.162886,10.584561 22.664156,7.4355212 12.253662,5.0069178 11.634844,5.4144767 8.7287966,16.613464 6.0924931,26.772945 6.1052641,37.625549 8.7640586,46.578681 10.806533,53.456437 10.771621,53.883714 7.4307253,62.896962 3.8187247,72.641612 3.2321089,77.377514 5.1775228,81.087653 5.8712415,82.410658 5.8019978,86.717947 5.0089917,91.571091 3.4116055,101.34699 4.3440065,106.17296 8.057879,107.3517 c 1.6123472,0.51174 3.035115,2.4466 3.496901,4.75553 C 11.982984,114.24825 12.858333,116 13.5,116 c 1.229619,0 1.538065,-2.08879 1.279785,-8.66667 -0.200104,-5.09625 0.634665,-6.16845 7.573695,-9.727819 10.790708,-5.535089 29.640884,-2.910566 35.951931,5.005609 0.901311,1.13055 3.496633,6.80371 5.767382,12.60703 3.104799,7.93488 4.314341,13.55585 4.877495,22.66666 0.854621,13.82623 -0.500456,14.71173 -2.365029,1.54546 -2.345269,-16.56059 -10.089033,-34.62972 -16.696405,-38.95904 -3.491776,-2.2879 -8.555522,-1.32989 -8.555522,1.61862 0,2.89839 -2.25823,2.28268 -3.074369,-0.83824 -0.609452,-2.330547 -1.595951,-2.685284 -6.488841,-2.333332 -5.37743,0.386805 -5.75304,0.664592 -5.519105,4.081722 0.290727,4.24669 -1.67355,4.91992 -2.917684,1 -1.172258,-3.69346 -3.146264,-3.3323 -4.743136,0.86779 -1.107472,2.91287 -0.849665,4.06045 1.465929,6.52528 2.398624,2.55322 2.563036,3.38584 1.123687,5.69061 -2.29144,3.66917 0.430897,6.91632 5.7985,6.91632 3.882794,0 3.961057,0.12839 3.047747,5 -1.461181,7.79395 -6.886508,19.62103 -9.21771,20.09437 -1.720574,0.34935 -1.501436,-0.8719 1.19624,-6.66667 C 25.690149,134.51091 26.361198,128 23.491584,128 c -2.310199,0 -7.754231,7.0582 -11.68595,15.15086 -1.932989,3.97867 -3.8659048,6.18247 -5.4225485,6.18247 -2.2745648,0 1.397772,-4.39422 3.3459297,-9.09592 z M 71.624612,114.76967 C 69.821105,112.62633 64.6276,103.77633 60.083489,95.103005 55.539378,86.429684 50.211638,77.968427 48.244067,76.300212 46.276496,74.631997 43.916665,72.658341 42.999999,71.91431 42.083332,71.170279 41.3807,69.235183 41.438595,67.614096 c 0.06898,-1.931597 0.351613,-2.25813 0.820045,-0.947432 2.267573,6.344799 10.824384,7.122102 16.451983,1.494504 3.569057,-3.569058 4.087908,-3.709607 7.383178,-2 5.60756,2.909237 10.94581,2.29315 14.636528,-1.6892 3.077011,-3.32015 3.269668,-3.364068 3.269668,-0.745356 0,1.53047 -0.561245,3.129542 -1.247212,3.553493 -0.699019,0.432018 0.427022,4.830876 2.561892,10.007991 7.255301,17.594287 6.286159,30.323014 -2.897073,38.050194 -5.086749,4.28022 -6.788398,4.19057 -10.792992,-0.56862 z m 14.547223,-7.72685 c 2.18498,-5.12792 2.209404,-13.769873 0.05903,-20.885283 l -1.564198,-5.175793 -5.96198,4.547963 c -3.279088,2.501379 -7.571309,6.917646 -9.538267,9.813926 l -3.576288,5.265967 2.656709,5.20758 c 1.461191,2.86417 4.143276,6.69414 5.96019,8.51106 l 3.303479,3.30348 3.416583,-3.1492 c 1.879121,-1.73205 4.239256,-5.07992 5.244745,-7.4397 z M 74.666664,71.999998 c 0,-0.733334 -0.63541,-1.333334 -1.412022,-1.333334 -0.776613,0 -1.041203,0.6 -0.587978,1.333334 0.453225,0.733333 1.088635,1.333333 1.412023,1.333333 0.323387,0 0.587977,-0.6 0.587977,-1.333333 z M 16.636425,66.617733 c -1.77573,-2.873191 1.050937,-12.510226 4.756217,-16.215506 3.030332,-3.030332 4.916635,-3.735562 9.991632,-3.735562 5.50973,0 6.794484,0.587811 10.769231,4.927223 5.429318,5.927434 5.79406,9.367152 1.117733,10.540836 -1.867485,0.468709 -3.767485,0.48014 -4.222222,0.0254 -0.454737,-0.454737 0.473205,-0.826795 2.062094,-0.826795 3.638375,0 3.684478,-2.628949 0.125448,-7.153521 -3.314892,-4.214203 -7.903226,-4.723483 -7.903226,-0.877216 0,3.807408 -5.819579,7.200155 -10.682241,6.227622 -3.709383,-0.741876 -3.984425,-0.523069 -3.984425,3.169782 0,4.539707 1.278842,4.885058 6.380244,1.722979 l 3.619756,-2.243688 -2.944249,2.910355 c -3.113319,3.077478 -7.656221,3.841507 -9.085992,1.528089 z M 87.991066,55.322571 c -2.390584,-2.880478 -0.90503,-13.667871 2.327371,-16.900272 1.436787,-1.436786 4.913642,-3.131367 7.726346,-3.765734 6.606477,-1.490004 11.942597,0.699146 17.706847,7.264265 5.0976,5.805846 4.04917,8.879687 -2.91489,8.546059 -4.02985,-0.193058 -4.04678,-0.218455 -0.50341,-0.75523 4.54604,-0.688667 4.57906,-1.75607 0.21481,-6.942693 C 108.57949,38.052498 104,37.266919 104,41.302595 c 0,3.807407 -5.819583,7.200154 -10.682245,6.227622 -3.709383,-0.741877 -3.984425,-0.523069 -3.984425,3.169781 0,4.634897 2.879173,5.289281 7.228346,1.642873 2.011572,-1.686531 1.885214,-1.320885 -0.460765,1.333333 -3.659187,4.139969 -5.697003,4.553663 -8.109845,1.646367 z M 56.018337,54.022096 c -1.363841,-1.643329 -1.014251,-2.216387 2.066672,-3.387752 6.213644,-2.362424 10.189496,1.031096 4.669311,3.985409 -3.472759,1.858564 -4.794854,1.74126 -6.735983,-0.597657 z M 13.417848,45.14265 c -0.04648,-1.938208 -0.984515,-3.869377 -2.084515,-4.291487 -3.1459577,-1.207217 -2.3370953,-4.715753 1.29748,-5.627974 3.109442,-0.78042 3.191994,-1.031603 1.447641,-4.404809 -1.017411,-1.967457 -2.228645,-5.956461 -2.69163,-8.864454 -0.774054,-4.861805 -0.622994,-4.703204 1.877275,1.97099 1.495487,3.992037 3.322854,7.862037 4.060817,8.599999 2.640463,2.640463 1.505723,5.150635 -2.023406,4.475999 -5.098745,-0.974687 -5.3380137,1.354398 -0.362465,3.52829 2.416858,1.055962 3.624953,1.968875 2.684655,2.028696 -0.940297,0.05982 -2.252265,1.458765 -2.915484,3.108765 -1.175917,2.925524 -1.207951,2.912515 -1.290368,-0.524015 z M 126.59138,28.420988 c 2.09444,-4.330301 1.8038,-4.719668 -2.77263,-3.714515 l -4.18124,0.918355 4.38129,-7.812414 c 2.40971,-4.296828 4.89127,-8.3824143 5.51458,-9.079081 2.0762,-2.3205581 1.20351,1.901919 -1.4804,7.162805 -2.3548,4.615793 -2.39288,5.105769 -0.38442,4.946882 3.32433,-0.262984 3.49092,3.618738 0.31215,7.273443 -2.56598,2.950166 -2.68116,2.975414 -1.38933,0.304525 z"
         id="path11"
         sodipodi:nodetypes="sssssssssssscssssssscscsssssscsssscsssssscssssssssssssssssssssssssssssssssssssssssssssssssssssscsscsscsssssssssssssssssssscsssssssssssssssssssssssssssssssssscssssss" />
      <path
         style="fill:#73504a"
         d="m 7.397036,144.76978 c 1.0237744,-2.79831 4.698317,-8.02375 7.180316,-11.76633 5.178708,-7.80889 6.42847,-9.29224 0.663529,-11.33386 -2.937219,-1.0402 -7.0073881,-4.83661 -7.0073881,-7.9498 0,-1.21473 -1.9863434,-3.96884 -3.5436373,-5.36583 C 2.0796823,106.01247 2.4916359,105.5722 3.2403316,94.878805 3.7369649,87.785544 3.4944979,82.251202 2.6909622,81.754589 -0.1183293,80.018352 0.81314968,71.052634 4.943879,62.869705 8.8414976,55.148566 8.516085,52.736925 6.6911399,48.103503 3.6249754,40.318702 4.3415892,32.554729 5.8568426,21.87015 7.713382,8.7790431 8.4191954,4.8649761 13.550217,4.3667394 15.683689,4.1595733 26.67308,6.1350797 37.911848,9.4356241 57.716898,15.251871 59.217874,15.886358 71.719975,15.097644 79.01793,14.637242 87.859247,12.963224 91.338431,11.613695 100.25448,8.1552782 116.5004,5.5379052 125.4138,5.5862641 c 6.7366,0.036549 6.29679,-0.6609822 8.48051,2.3348185 3.34826,4.5934314 4.33439,17.9670564 3.42949,37.6074984 -0.61803,13.414215 0.0445,16.713122 1.87659,18.737556 3.4861,3.852093 6.7745,13.169131 7.63029,24.207778 0.7934,10.233919 -0.26769,8.78373 -4.44109,12.682265 -2.3066,2.15469 -3.81398,6.46777 -3.81398,7.84371 0,3.57215 -4.45543,4.04222 -8.27558,9.09397 l -3.61286,4.77762 2.79624,5.65531 c 2.17154,4.39186 10.90033,17.83526 10.90033,19.43714 0,0.38758 0.0576,1.3694 -1.03252,1.3694 -1.09016,0 -2.91557,-2.25 -4.05647,-5 -5.96668,-14.38198 -12.43525,-21.53013 -19.69082,-21.75954 -1.76523,-0.0558 -0.54313,-0.85059 3.06273,-1.99181 10.40543,-3.29322 16.61572,-7.54184 17.09635,-11.69607 0.23632,-2.04261 -0.28715,-4.57756 -1.16326,-5.63321 -1.3029,-1.56989 -1.06663,-1.91937 1.29759,-1.91937 1.58979,0 4.36326,-1.472727 6.16326,-3.272727 5.62281,-5.622813 3.90627,-20.494906 -3.5384,-30.656609 -3.35031,-4.573048 -3.84657,-6.407611 -3.78707,-13.999999 0.0377,-4.805532 0.54582,-12.93733 1.12925,-18.070663 0.82746,-7.280355 0.5511,-11.193018 -1.25638,-17.787909 -1.27443,-4.650017 -2.93178,-9.069203 -3.68299,-9.820413 -2.41359,-2.4135834 -37.384118,3.534095 -40.786937,6.936914 -0.895212,0.895212 -0.03626,1.382064 2.595257,1.470982 2.163333,0.0731 5.318537,0.523099 7.011563,1 1.693027,0.476901 -8.413521,0.811008 -22.458993,0.74246 C 60.63384,17.794096 51.440319,17.251797 50.862411,16.316724 49.745677,14.50981 24.428954,6.9250086 17.747228,6.3955303 13.096757,6.0270143 12.581291,6.3642629 10.200068,11.333333 6.4598171,19.138385 5.6357062,37.511376 8.6027526,46.944388 10.880775,54.186813 10.876082,54.249469 7.4450231,62.401301 4.0059185,70.57225 2.9545674,79.670745 5.1726474,82.066664 c 0.6762092,0.730425 0.5871254,4.683442 -0.2104267,9.337502 -1.6297949,9.510554 -0.5286265,15.276864 3.0984962,16.225374 1.4332722,0.37481 2.6151371,1.66149 2.6263661,2.8593 0.01123,1.1978 0.61123,3.07782 1.333334,4.17782 1.167036,1.77778 1.462538,1.77778 2.659518,0 0.740631,-1.1 1.039651,-3.30836 0.664488,-4.90747 -1.133521,-4.83155 1.476044,-9.22263 7.278175,-12.246867 4.595899,-2.395517 7.158398,-2.775382 15.599551,-2.312481 13.850121,0.759521 18.214981,3.317001 23.022665,13.489548 5.252013,11.11271 6.664264,16.86458 7.360283,29.97727 0.572648,10.78844 0.535715,10.98076 -0.768183,4 -2.551773,-13.66159 -7.803443,-28.98196 -12.162923,-35.48214 -5.0745,-7.566312 -10.928219,-10.49841 -13.617318,-6.82085 -2.032465,2.77956 -3.390008,2.9615 -3.390008,0.45433 0,-2.006441 -6.888202,-3.525759 -11.050293,-2.437348 -1.91334,0.50035 -2.396612,1.57438 -1.98139,4.403468 0.302041,2.05794 0.05773,3.43799 -0.542908,3.06677 -0.600641,-0.37122 -1.092075,-1.53953 -1.092075,-2.59625 0,-3.14423 -3.938819,-2.18106 -5.551052,1.3574 -1.195962,2.62485 -1.051949,3.95319 0.722132,6.66078 1.417374,2.16319 1.907806,4.61007 1.36082,6.78943 -0.986202,3.92934 2.213182,7.15934 7.160169,7.22867 2.619206,0.0367 2.907337,0.5347 2.146035,3.70908 -1.163618,4.85188 -5.525187,16.49165 -7.105077,18.96138 -2.539575,3.96995 -2.688051,0.27248 -0.217728,-5.422 1.401204,-3.23 2.93903,-7.74475 3.417391,-10.03279 0.723565,-3.46087 0.413995,-4.27925 -1.841847,-4.86917 -2.165181,-0.56621 -3.795055,0.91339 -8.088283,7.34255 -2.957178,4.42841 -5.732554,9.46954 -6.1675009,11.20251 -0.4729906,1.88454 -1.7770942,3.15085 -3.2449002,3.15085 -2.3177726,0 0.3812007,-3.40003 0.8068781,-4.56355 z M 73.179809,116.1297 C 71.430913,114.73437 65.80446,105.68606 60.676581,96.022336 55.548702,86.358613 50.448702,77.628097 49.343248,76.621188 c -1.105454,-1.006908 -3.359916,-3.058593 -5.009916,-4.5593 -1.65,-1.500706 -2.952632,-3.778557 -2.894737,-5.06189 0.0829,-1.837551 0.257139,-1.908377 0.820045,-0.333334 2.299294,6.433556 11.857882,7.29 16.730639,1.499057 2.957596,-3.514902 3.495,-3.685427 6.451858,-2.047247 5.605052,3.105351 16.223577,1.670854 17.588482,-2.376094 0.323207,-0.95831 0.315544,-0.542382 -0.01703,0.924284 -1.061466,4.681145 -0.709194,6.489956 2.944692,15.120105 2.5428,6.005863 3.616726,10.936645 3.709128,17.029936 0.1129,7.445065 -0.384208,9.306195 -3.768179,14.107735 -2.14403,3.04217 -4.673832,5.78723 -5.621783,6.10013 -0.947951,0.3129 -0.13143,-1.13963 1.814492,-3.22784 4.684123,-5.02662 5.909055,-8.55439 5.909055,-17.017902 0,-6.483912 -2.063719,-15.445497 -3.556866,-15.445497 -2.29725,0 -12.731899,8.819142 -15.244123,12.884005 -1.672897,2.706805 -3.283493,4.195879 -3.579102,3.309053 -0.746496,-2.239488 6.000144,-10.769764 10.576473,-13.372618 2.082717,-1.184576 3.790552,-2.603774 3.795188,-3.153774 0.0046,-0.55 0.90843,-1 2.00843,-1 2.500505,0 2.492232,-0.210641 -0.232706,-5.924894 -1.737064,-3.642662 -2.62503,-4.356433 -4,-3.21531 -0.972011,0.806698 -1.767294,2.293257 -1.767294,3.303464 0,2.744928 -2.103934,2.230933 -6.126,-1.496593 -4.386358,-4.065139 -4.633677,-4.07224 -11.609842,-0.333333 -3.078619,1.65 -5.780177,3.082686 -6.00346,3.183747 -0.223283,0.101062 2.347798,5.162192 5.713515,11.246958 3.365717,6.084765 7.211797,13.532564 8.546845,16.550654 1.335048,3.0181 4.376121,7.70697 6.757941,10.41971 4.782582,5.44706 4.748787,6.26318 -0.09919,2.3953 z m 1.486855,-44.129702 c 0,-0.733334 -0.63541,-1.333334 -1.412022,-1.333334 -0.776613,0 -1.041203,0.6 -0.587978,1.333334 0.453225,0.733333 1.088635,1.333333 1.412023,1.333333 0.323387,0 0.587977,-0.6 0.587977,-1.333333 z M 16.535796,66.13975 c -1.019485,-2.656734 1.736997,-12.024582 4.566367,-15.518706 2.894374,-3.574401 14.314703,-5.085415 17.59582,-2.328088 3.399546,2.85685 7.968682,9.290356 7.968682,11.220187 0,3.148866 -1.92184,1.930456 -4,-2.535924 -1.1,-2.36412 -3.5,-5.031898 -5.333333,-5.928396 -3.056066,-1.494413 -3.409743,-1.345735 -4.251941,1.787417 -1.339138,4.981876 -4.980807,7.309855 -10.081392,6.444649 -4.130226,-0.700606 -4.333333,-0.537455 -4.333333,3.480867 0,3.560455 0.414886,4.10743 2.668506,3.518095 1.467679,-0.383806 2.332269,-0.153785 1.921311,0.511158 C 22.093,68.673564 17.331036,68.212112 16.535796,66.13975 Z M 56.588171,54.099604 c -2.496298,-1.832934 -2.454933,-1.95126 1.165293,-3.333333 4.699152,-1.793968 5.864901,-1.79579 6.968028,-0.01089 0.48338,0.782126 -0.231209,2.263044 -1.587977,3.290929 -3.111121,2.356981 -3.404671,2.359371 -6.545344,0.0533 z m 30.967382,1.011505 c -1.577195,-1.577194 -0.946217,-8.58729 1.175366,-13.058195 4.695543,-9.895122 19.331491,-9.841079 27.151351,0.100257 2.76776,3.518634 3.69598,7.22698 1.78439,7.1288 -0.55,-0.02825 -2.20117,-1.961112 -3.66927,-4.295253 -1.46809,-2.334141 -4.16809,-4.992793 -6,-5.908117 -3.11559,-1.556731 -3.39726,-1.410468 -4.36087,2.264476 -1.25556,4.788362 -5.329178,7.185057 -10.466081,6.157676 -3.539371,-0.707874 -3.837109,-0.459631 -3.837109,3.199245 0,4.328088 3.169057,5.421025 6.669029,2.3 1.590036,-1.41788 1.605472,-1.318366 0.103407,0.666667 -1.745428,2.306646 -6.82918,3.165478 -8.550213,1.444444 z M 13.738646,43.533613 c 0.506535,-1.320009 -0.144575,-2.361009 -1.806685,-2.888542 -2.6988336,-0.856577 -3.6666226,-4.645072 -1.186605,-4.645072 0.776612,0 1.034297,0.611172 0.572633,1.35816 -0.461664,0.746988 0.974087,2.12067 3.190558,3.052626 3.95106,1.661296 3.975217,1.728646 1.234052,3.440532 -2.41273,1.506775 -2.687363,1.463235 -2.003953,-0.317704 z M 14.82373,36.448178 C 16.771788,35.928153 16.739491,35.399057 14.490397,30.987591 13.120678,28.300967 12,25.227999 12,24.158773 c 0,-1.069227 1.471085,0.961717 3.269079,4.513209 3.442426,6.799659 3.362235,8.761188 -0.347769,8.506682 -1.989244,-0.136462 -2.000731,-0.22245 -0.09758,-0.730486 z M 127.40352,26.333332 c 0.96711,-4.004315 0.40572,-4.371978 -3.49118,-2.286421 -1.41846,0.759135 -2.57901,0.982171 -2.57901,0.495635 0,-1.744946 8.30075,-15.3529092 8.96187,-14.6917859 0.3716,0.3716029 -0.5928,2.7280219 -2.14311,5.2364859 -3.34976,5.420012 -3.53516,6.806298 -0.76829,5.74455 3.03875,-1.166079 3.85318,2.580383 1.32743,6.106361 l -2.19327,3.061842 z"
         id="path10"
         sodipodi:nodetypes="sssssssssssssssssssssscssssssssssscsssssssssssssssssssssssssssssssssssssssssssssssssssssssssssssssscssssssssssssssssssssssssssssssssssssssssssssssssssssssssssssssssssscs" />
      <path
         style="fill:#5c362e"
         d="m 6.0227102,146.33333 c 0.8133083,-2.80749 5.0305028,-10.27936 10.4993248,-18.60232 l 2.366998,-3.60232 -4.774868,-1.99506 c -2.845669,-1.189 -5.4280098,-3.50451 -6.3914263,-5.73102 C 6.8336321,114.34784 5.0322904,111.23575 3.7197572,109.48685 1.1276396,106.03296 0.66529007,98.483307 2.549184,90.372689 3.412534,86.655759 3.2374151,85.02696 1.8507085,83.876096 -1.3076744,81.254871 -0.29907109,72.194858 4.2497624,62.326038 8.0611696,54.057084 8.3067015,52.808337 6.6301431,50.219696 5.3940059,48.311074 4.6215608,42.365066 4.3498315,32.666666 3.9895203,19.806649 4.3168154,17.096675 7.0068649,10.666666 10.011755,3.4840971 10.183705,3.3355099 15.370747,3.4392105 18.283502,3.4974431 29.201504,6.0931189 39.632973,9.2073791 L 58.59928,14.86967 72.966305,13.555549 C 81.255545,12.79735 92.127751,10.745742 98.666663,8.7058385 105.19311,6.669824 114.86006,4.844082 121.4587,4.4012363 l 11.45871,-0.7690126 2.87462,5.938187 c 2.60543,5.3820923 2.87463,8.1052493 2.87463,29.0788993 0,17.906734 0.42091,23.61682 1.86096,25.2457 3.05131,3.451438 6.13971,14.377222 7.02524,24.853083 0.82313,9.737588 0.79358,9.858381 -3.36122,13.739547 -2.3054,2.15357 -4.19164,5.1287 -4.19164,6.61141 0,2.46959 -7.00447,10.87363 -9.10257,10.92136 -0.49359,0.0112 -1.72298,0.54333 -2.73197,1.18244 -1.47305,0.93305 -1.04861,2.30837 2.15397,6.97959 3.79815,5.53991 11.0139,18.93109 11.0139,20.4399 0,0.39104 -0.85347,0.71099 -1.8966,0.71099 -1.04313,0 -2.54751,-1.95 -3.34308,-4.33333 -0.79557,-2.38334 -3.8053,-8.04925 -6.68828,-12.59091 -4.44766,-7.00655 -5.97746,-8.39558 -10.09764,-9.16853 l -4.85584,-0.91097 6.90992,-2.33924 c 3.80046,-1.28658 8.49879,-3.52008 10.44072,-4.96333 3.88975,-2.89086 5.28737,-8.77387 2.79722,-11.77432 -1.31492,-1.58438 -1.00335,-1.91937 1.78513,-1.91937 2.15498,0 4.66242,-1.526374 6.92537,-4.215732 3.18292,-3.782681 3.45552,-4.912629 2.65375,-11 -0.84685,-6.429718 -3.0027,-11.935828 -8.53302,-21.793649 -2.49676,-4.450476 -2.77232,-17.059333 -0.71077,-32.523035 0.92731,-6.955807 -2.45623,-21.368687 -5.63599,-24.0076534 -3.51202,-2.9147177 -38.951908,3.2629464 -42.417556,7.3939684 -0.770551,0.918489 -4.710032,1.566131 -9.333333,1.534379 -4.4,-0.03022 -11.995969,0.406232 -16.87993,0.969889 -6.795985,0.784324 -9.305736,0.599026 -10.694336,-0.789574 C 49.097058,14.239916 20.325179,5.3333332 14.387823,5.3333332 8.2851859,5.3333332 4.3651531,32.733974 8.4550602,46.80276 10.536794,53.963673 10.510855,54.284987 7.1866309,62.514936 5.320138,67.135907 3.8762758,72.810443 3.9780483,75.125016 4.0798208,77.439589 5.6083174,78.592795 5.5177282,85.695919 5.358682,98.166737 3.9511183,105.23983 7.2501698,107.40145 c 2.0782416,1.36171 3.4164962,3.47834 3.4164962,5.40362 0,2.51471 0.649505,3.1113 3.160948,2.90345 2.753806,-0.22791 3.030498,-0.71646 2.148171,-3.79296 -1.959517,-6.83243 -0.169928,-10.34439 7.142842,-14.017381 5.333623,-2.678927 7.821439,-3.210628 11.509558,-2.459848 2.587831,0.526797 6.659358,0.822347 9.047837,0.656777 9.418049,-0.652863 17.934251,9.266672 22.280097,25.951502 1.124133,4.31584 2.010842,9.97092 1.970463,12.56685 -0.05922,3.8071 -0.558529,2.86913 -2.581917,-4.85022 -3.457473,-13.19047 -8.584138,-23.48591 -14.111584,-28.33907 -5.550419,-4.873336 -6.315332,-4.964427 -9.847809,-1.17276 -2.123138,2.27892 -2.718607,2.45901 -2.718607,0.82218 0,-3.613316 -11.014201,-5.221862 -12.933746,-1.888885 -0.586439,1.018255 -2.253854,2.074085 -3.705367,2.346285 -1.451512,0.2722 -3.210947,2.12092 -3.909856,4.10825 -1.007653,2.86525 -0.757635,4.18032 1.207609,6.35189 1.89995,2.09942 2.112294,3.1046 0.909856,4.30704 -0.862672,0.86267 -1.568495,2.02512 -1.568495,2.58322 0,2.10719 5.957055,6.45194 8.846215,6.45194 3.005858,0 3.007159,0.01 0.934408,7 -3.006607,10.13963 -5.905621,17 -7.183755,17 -0.612473,0 0.0053,-2.55 1.372739,-5.66667 1.367479,-3.11666 2.884879,-7.83331 3.371999,-10.48144 0.768967,-4.18033 0.510219,-4.91296 -1.963625,-5.55988 -2.22247,-0.58119 -3.750854,0.47803 -6.947405,4.81477 -2.253959,3.05794 -5.25099,8.10989 -6.660067,11.22655 -2.684385,5.93745 -5.9299467,7.89802 -4.4144648,2.66667 z m 62.2866248,-1 c 0,-2.56667 0.274393,-3.61667 0.609763,-2.33333 0.33537,1.28333 0.33537,3.38333 0,4.66666 -0.33537,1.28333 -0.609763,0.23333 -0.609763,-2.33333 z M 61.641024,97.025638 c -1.643681,-3.000764 -2.727183,-5.717262 -2.407783,-6.036662 0.3194,-0.3194 1.86444,1.93556 3.433424,5.011021 3.711125,7.274403 2.862166,8.123363 -1.025641,1.025641 z m 3.732852,0.563413 c -0.0223,-0.959354 2.509455,-4.284433 5.626122,-7.389065 3.822515,-3.807754 4.312812,-4.107934 1.506574,-0.922387 -2.288051,2.597319 -4.819805,5.922398 -5.626122,7.389064 -0.806316,1.466667 -1.484274,1.881741 -1.506574,0.922388 z M 88.10526,89.888886 c 0.06398,-1.553257 0.379921,-1.869199 0.805556,-0.805556 0.38516,0.9625 0.337792,2.1125 -0.105263,2.555556 -0.443056,0.443055 -0.758188,-0.344445 -0.700293,-1.75 z M 53.333332,81.333331 c -0.784937,-1.466667 -1.127157,-2.666667 -0.76049,-2.666667 0.366666,0 1.308887,1.2 2.093823,2.666667 0.784936,1.466666 1.127156,2.666666 0.76049,2.666666 -0.366667,0 -1.308887,-1.2 -2.093823,-2.666666 z m 30.184497,-2 c 0.422109,-1.1 0.939085,-2 1.148835,-2 0.20975,0 0.726725,0.9 1.148835,2 0.46281,1.206063 0.0068,2 -1.148835,2 -1.155594,0 -1.611645,-0.793937 -1.148835,-2 z M 47.656561,74.781317 c -5.620062,-3.602878 -5.532986,-3.77539 1.561554,-3.093695 5.816356,0.558879 6.991077,0.224044 9.782992,-2.788483 3.087262,-3.331211 3.324396,-3.371438 8.784648,-1.490229 4.871557,1.678388 6.212355,1.682445 10.165392,0.03076 3.946474,-1.648942 4.456149,-1.648539 3.822385,0.003 -0.4022,1.048115 -3.054876,2.277224 -5.894835,2.731352 -2.839959,0.454127 -4.813778,1.39165 -4.386263,2.083382 0.427514,0.691733 1.616608,0.935623 2.642431,0.541978 1.025823,-0.393645 1.865132,-0.13455 1.865132,0.575768 0,2.019793 -3.488412,1.514481 -5.393747,-0.781308 -3.717274,-4.479041 -6.242362,-4.760449 -11.387228,-1.269049 -2.708465,1.838014 -5.776164,3.341844 -6.817109,3.341844 -1.040945,0 -1.521806,0.6 -1.068581,1.333333 1.06291,1.719826 0.739992,1.612794 -3.676771,-1.21868 z M 17.514909,60.205721 c -0.414753,-7.144035 6.787667,-13.539056 15.248421,-13.539056 3.320353,0 10.466766,5.4034 12.723579,9.620294 1.051289,1.964353 0.991899,3.066961 -0.225662,4.189518 -1.25552,1.157553 -1.421416,1.115056 -0.690626,-0.176918 0.588966,-1.04124 -0.83417,-3.496442 -3.671061,-6.333333 -5.048755,-5.048754 -9.051744,-6.169515 -8.026018,-2.247132 1.215382,4.647629 -6.27224,8.692576 -11.76745,6.356986 -1.651184,-0.701792 -2.380144,-0.14434 -2.818423,2.155311 l -0.591184,3.10194 z m 40.151756,-5.088764 c -2.968666,-1.197882 -1.765913,-4.119944 2,-4.858954 4.882796,-0.958184 6.944921,1.161067 3.595004,3.694595 -2.802041,2.119172 -3.083546,2.177755 -5.595004,1.164359 z m 30.333332,-0.528982 c 0,-0.776612 0.6,-1.041202 1.333333,-0.587977 0.733334,0.453225 1.333334,1.088635 1.333334,1.412023 0,0.323387 -0.6,0.587977 -1.333334,0.587977 -0.733333,0 -1.333333,-0.63541 -1.333333,-1.412023 z m -0.660075,-6.518278 c 1.357723,-8.930815 6.559329,-13.403032 15.588978,-13.403032 3.06192,0 5.58032,1.491677 10.02885,5.940206 3.78057,3.780577 5.56703,6.544004 4.91378,7.600994 -0.70181,1.135549 -1.40072,0.537904 -2.20993,-1.889732 -1.08963,-3.268888 -8.25181,-8.984801 -11.25818,-8.984801 -0.70501,0 -1.23419,1.270547 -1.17596,2.823438 0.15979,4.26135 -6.307414,8.662664 -10.180028,6.928116 -2.625383,-1.175913 -3.280032,-0.883909 -4.726903,2.108414 -1.645817,3.40377 -1.665466,3.381257 -0.980607,-1.123603 z m -71.589923,-6.31385 c 0.9625,-0.385161 2.1125,-0.337793 2.555556,0.105263 0.443055,0.443055 -0.344445,0.758187 -1.75,0.700292 -1.553257,-0.06398 -1.869199,-0.37992 -0.805556,-0.805555 z M 121.33333,24.490711 c 0,-1.113416 5.39743,-9.824045 6.08734,-9.824045 0.29509,0 -0.71443,2.4 -2.24336,5.333333 -2.60958,5.006578 -3.84398,6.448664 -3.84398,4.490712 z m 5.33333,-1.824045 c -1.72358,-1.113865 -1.68839,-1.295321 0.25465,-1.312916 1.24005,-0.01123 2.62546,0.579583 3.07869,1.312916 1.04291,1.687463 -0.72217,1.687463 -3.33334,0 z M 98.416663,17.755847 c 0.9625,-0.38516 2.112497,-0.337792 2.555557,0.105264 0.44305,0.443055 -0.34445,0.758187 -1.750001,0.700292 -1.553257,-0.06398 -1.869199,-0.379921 -0.805556,-0.805556 z M 93.08333,16.422514 c 0.9625,-0.385161 2.1125,-0.337792 2.555556,0.105263 0.443055,0.443056 -0.344445,0.758187 -1.75,0.700293 -1.553258,-0.06398 -1.869199,-0.379921 -0.805556,-0.805556 z"
         id="path9"
         sodipodi:nodetypes="sscssssssssssscssscsssssssssssssscsssssssssssssssssssssssssssssssssssssscscsssssssssssssssssssssssssssssssscsssssssssssssccssssssssscssssssssssssssssssssssssssssssssssssssss" />
    </g>
  </g>
</svg>
