<?xml version="1.0" encoding="UTF-8" standalone="no"?>
<!-- Created with Inkscape (http://www.inkscape.org/) -->

<svg
   version="1.1"
   id="svg1"
   width="112"
   height="112"
   viewBox="0 0 112 112"
   sodipodi:docname="nkoShock.svg"
   inkscape:version="1.3 (0e150ed6c4, 2023-07-21)"
   xmlns:inkscape="http://www.inkscape.org/namespaces/inkscape"
   xmlns:sodipodi="http://sodipodi.sourceforge.net/DTD/sodipodi-0.dtd"
   xmlns="http://www.w3.org/2000/svg"
   xmlns:svg="http://www.w3.org/2000/svg">
  <defs
     id="defs1" />
  <sodipodi:namedview
     id="namedview1"
     pagecolor="#2d2d2d"
     bordercolor="#000000"
     borderopacity="0.25"
     inkscape:showpageshadow="2"
     inkscape:pageopacity="0.0"
     inkscape:pagecheckerboard="0"
     inkscape:deskcolor="#d1d1d1"
     inkscape:zoom="3.5102802"
     inkscape:cx="5.4126734"
     inkscape:cy="79.195958"
     inkscape:window-width="1366"
     inkscape:window-height="700"
     inkscape:window-x="0"
     inkscape:window-y="0"
     inkscape:window-maximized="1"
     inkscape:current-layer="g2" />
  <g
     inkscape:groupmode="layer"
     inkscape:label="character"
     id="g1">
    <g
       id="g2"
       inkscape:label="nkoShock">
      <path
         id="path1"
         style="opacity:1;fill:#fdfdfc;stroke:none;stroke-width:37.7953;stroke-linecap:round;stroke-linejoin:round;paint-order:stroke fill markers;fill-opacity:1"
         d="M 55.193359 46.330078 L 21.351562 72.115234 L 28.201172 101.92773 L 60.431641 107.56836 L 93.466797 96.287109 L 100.31641 81.783203 L 96.287109 59.222656 L 82.992188 47.539062 L 55.193359 46.330078 z " />
      <path
         id="path8"
         style="fill:#face9f"
         d="M 58.322266 3.4550781 C 54.598943 3.4550781 52.122541 8.2065201 50.185547 19.070312 C 49.422347 23.350784 49.25424 23.516486 43.058594 26.076172 C 39.568207 27.518199 35.934119 28.732478 34.984375 28.773438 C 34.034631 28.814398 30.299744 27.039583 26.683594 24.830078 C 13.989835 17.074069 9.7597074 16.825978 8.0292969 23.736328 C 6.4157044 30.180173 6.0396606 45.676502 7.2695312 55.015625 C 8.4108798 63.68255 8.3634168 64.340422 6.2285156 69.587891 C 3.3971512 76.547226 3.3406404 80.192567 6.0390625 81.636719 L 8.0839844 82.730469 L 6.0390625 84.908203 C 4.9142405 86.105521 3.9941406 87.583862 3.9941406 88.193359 C 3.9941406 89.69657 10.131278 94.285156 12.142578 94.285156 C 13.031914 94.285156 13.759766 94.527866 13.759766 94.826172 C 13.759766 95.124478 11.562774 98.795448 8.8769531 102.98242 C 6.5774657 106.5671 3.7165033 110.57748 3.1796875 111.6582 C 6.7622481 111.77199 15.326702 111.86075 26.236328 111.92188 C 45.517625 111.89671 66.32393 111.88852 86.474609 111.89844 C 97.509107 111.78972 102.24579 111.57084 103.73828 111.125 C 103.80089 110.24555 103.48099 108.93359 104.07422 108.93359 C 106.83023 108.93359 106.58133 106.84125 102.94922 99.492188 C 100.4909 94.518104 99.633909 91.86617 100.4043 91.609375 C 102.51247 90.90665 107.8503 86.979507 108.2168 85.861328 C 108.41472 85.257496 107.42071 83.390054 106.00781 81.710938 L 103.43945 78.658203 L 106.94531 78.658203 C 107.72789 78.658203 108.29712 78.642307 108.76953 78.589844 C 109.29418 78.329919 109.82393 77.968674 110.27344 77.556641 C 110.42969 77.013658 110.45336 76.219361 110.45508 74.996094 C 110.45774 72.981728 109.72743 69.293748 108.83398 66.800781 C 107.2533 62.390305 107.26721 62.195497 109.31836 59.587891 C 112.02495 56.147028 111.97928 55.638067 108.68359 52.476562 C 103.6148 47.614125 87.40667 28.397783 85.046875 24.453125 C 80.366732 16.629749 74.161786 10.454658 67.427734 6.9160156 C 63.805705 5.0126925 59.708533 3.4550781 58.322266 3.4550781 z M 70.425781 51.353516 C 75.051152 51.307376 78.790607 52.324941 82.5 54.482422 C 87.89502 57.620309 90.46052 60.553637 93.009766 66.5 C 97.947858 78.018584 97.689724 86.132747 92.226562 91.199219 C 88.347682 94.796446 84.302185 95.899532 69 97.535156 C 47.263916 99.858489 40.460577 99.248892 36.078125 94.583984 C 31.428352 89.634528 32.505956 76.10931 38.238281 67.455078 C 43.240457 59.903171 51.222298 54.674047 60.958984 52.570312 C 64.556327 51.793061 67.650559 51.381199 70.425781 51.353516 z M 71.353516 56.974609 C 64.329862 56.756454 56.14571 58.807034 49.806641 63.005859 C 43.270453 67.33525 42 70.641024 42 83.332031 C 42 93.441432 42.089732 93.879668 44.25 94.34375 C 47.982239 95.145531 65.063862 93.940198 72 92.384766 C 75.574996 91.58307 80.750003 89.705114 83.5 88.212891 C 88.312516 85.601488 88.510924 85.321941 88.804688 80.740234 C 89.171288 75.022508 86.602511 64.336356 84.216797 61.654297 C 81.576141 58.685628 76.816357 57.144286 71.353516 56.974609 z " />
      <path
         id="path7"
         style="fill:#f89e98"
         d="M 58.322266 3.4550781 C 54.598943 3.4550781 52.122541 8.2065201 50.185547 19.070312 C 49.422347 23.350784 49.25424 23.516486 43.058594 26.076172 C 39.568207 27.518199 35.934119 28.732478 34.984375 28.773438 C 34.034631 28.814398 30.299744 27.039583 26.683594 24.830078 C 13.989835 17.074069 9.7597074 16.825978 8.0292969 23.736328 C 6.4157044 30.180173 6.0396606 45.676502 7.2695312 55.015625 C 8.4108798 63.68255 8.3634168 64.340422 6.2285156 69.587891 C 3.3971512 76.547226 3.3406404 80.192567 6.0390625 81.636719 L 8.0839844 82.730469 L 6.0390625 84.908203 C 4.9142405 86.105521 3.9941406 87.583862 3.9941406 88.193359 C 3.9941406 89.69657 10.131278 94.285156 12.142578 94.285156 C 13.031914 94.285156 13.759766 94.527866 13.759766 94.826172 C 13.759766 95.124478 11.562774 98.795448 8.8769531 102.98242 C 6.7485385 106.30041 4.1540743 109.96388 3.3496094 111.35352 C 6.0189468 111.6717 12.44977 111.84067 23.988281 111.92578 C 42.023789 111.8986 62.239112 111.88966 83.429688 111.89844 C 98.169027 111.65354 96.723038 110.77899 95.441406 107.62695 C 94.418793 105.11195 100.07323 107.06723 101.24219 109.63281 C 101.83858 110.94174 102.51481 111.71631 103.04883 111.90234 C 103.07692 111.90238 103.17132 111.90231 103.19922 111.90234 C 104.36946 111.90379 103.18506 108.93359 104.07422 108.93359 C 106.83023 108.93359 106.58133 106.84125 102.94922 99.492188 C 100.4909 94.518104 99.633909 91.86617 100.4043 91.609375 C 102.51247 90.90665 107.8503 86.979507 108.2168 85.861328 C 108.41472 85.257496 107.42071 83.390054 106.00781 81.710938 L 103.43945 78.658203 L 105.17578 78.658203 C 105.33184 78.151478 106.25307 78 108 78 C 109.10544 78 109.80083 77.972653 110.24219 77.699219 C 110.43634 77.158865 110.45322 76.316944 110.45508 74.996094 C 110.45774 72.981728 109.72743 69.293748 108.83398 66.800781 C 107.2533 62.390305 107.26721 62.195497 109.31836 59.587891 C 112.02495 56.147028 111.97928 55.638067 108.68359 52.476562 C 103.6148 47.614125 87.40667 28.397783 85.046875 24.453125 C 80.366732 16.629749 74.161786 10.454658 67.427734 6.9160156 C 63.805705 5.0126925 59.708533 3.4550781 58.322266 3.4550781 z M 57.919922 4.0605469 L 62.011719 5.5039062 C 64.261657 6.2977307 67.316436 7.6805409 68.800781 8.5761719 C 71.576311 10.250884 78.808194 18.727705 80.917969 22.78125 C 82.031673 24.921029 81.945862 25.024465 79.552734 24.423828 C 75.738387 23.466488 76.440435 24.484658 81.921875 27.857422 C 86.589198 30.729255 107.14933 52.658086 107.79883 55.457031 C 107.96304 56.164694 106.16304 57.700835 103.79883 58.871094 C 100.20066 60.652145 99.970404 61.658842 103.28906 61.105469 C 104.19668 60.954126 108.97553 70.812867 108.99023 72.867188 C 108.99696 73.808708 108.30011 74.0332 106.75 73.591797 C 105.5125 73.239409 103.27784 72.683969 101.78516 72.357422 C 99.131868 71.776975 99.092455 71.837745 100.01562 75.056641 C 100.53497 76.867524 102.20714 79.660319 103.73047 81.263672 L 106.5 84.179688 L 103.03711 87.089844 C 100.91064 88.877195 98.425319 90 96.595703 90 C 94.053476 90 93.84466 90.183237 95.166016 91.25 C 96.017593 91.937499 98.105043 95.537504 99.804688 99.25 C 101.50433 102.9625 102.74656 106 102.56445 106 C 102.05532 106 95.671728 98.80189 93.765625 96.078125 L 92.070312 93.65625 L 85.285156 95.289062 C 74.749675 97.825812 58.353426 99.160072 39.21875 99.037109 C 34.114388 99.004308 28.826882 99.256787 27.46875 99.597656 C 24.495207 100.34397 24.221275 98.778725 26.861328 96.138672 C 28.675274 94.324726 28.600567 94.251396 23.923828 93.171875 C 21.285666 92.562914 15.949896 90.829253 12.066406 89.318359 L 5.0058594 86.570312 L 7.7519531 84.320312 C 9.2628577 83.083204 11.400001 82.036277 12.5 81.992188 C 14.004936 81.931871 13.615018 81.444106 10.927734 80.023438 C 4.9602559 76.868651 4.6519349 76.003751 7.1269531 69.388672 C 9.2033164 63.839093 9.2611475 62.860066 8.2851562 49.525391 C 7.7205303 41.811075 7.4745847 33.033724 7.7402344 30.019531 L 8.2246094 24.539062 L 10.621094 30.917969 C 11.939862 34.425975 13.958571 38.814201 15.105469 40.669922 L 17.189453 44.042969 L 14.658203 42.890625 C 10.200674 40.859639 7.3886704 43.246093 10.533203 46.390625 C 11.798004 47.655427 11.846425 48.273715 10.808594 49.935547 C 9.7937763 51.560523 9.7996179 52.195814 10.845703 53.224609 C 11.897092 54.258617 12.082948 54.245488 11.822266 53.15625 C 11.64548 52.417569 12.400001 51.292567 13.5 50.65625 C 14.599999 50.019933 15.707432 49.366918 15.960938 49.205078 C 16.214443 49.043239 15.089442 47.823067 13.460938 46.492188 C 10.123068 43.764346 11.585745 43.217441 16.048828 45.525391 C 18.803935 46.950112 19 46.929506 19 45.197266 C 19 44.177022 16.974998 39.788369 14.5 35.445312 C 12.025002 31.102256 10 26.749255 10 25.773438 C 10 24.79762 9.4942971 24 8.8769531 24 C 8.1014475 24 8.1398964 23.536362 9 22.5 C 10.587027 20.587749 13.104343 20.601458 17.78125 22.546875 C 23.891688 25.088587 36.3015 33.701214 39.292969 37.476562 C 42.479309 41.497845 46.29965 42.176721 47.988281 39.021484 C 49.405724 36.372969 48.366391 32.691655 45.416016 29.919922 C 44.087551 28.671894 43 27.280298 43 26.826172 C 43 24.899329 45.867109 26.332064 51.279297 30.964844 C 56.006481 35.011262 57.463823 35.765733 59.279297 35.099609 C 62.332908 33.979195 62.66731 29.746682 59.998047 25.998047 L 57.863281 23 L 61.359375 23 L 64.855469 23 L 61.998047 17.25 C 60.426368 14.087503 58.866513 9.8270376 58.53125 7.78125 L 57.919922 4.0605469 z M 83.738281 39.136719 C 82.618639 38.981765 81.669257 39.475274 80.572266 40.572266 C 78.194427 42.950103 78.656128 46.584738 81.634766 48.927734 C 88.736092 54.513638 94.831237 47.402045 87.923828 41.589844 C 86.147549 40.095204 84.857924 39.291673 83.738281 39.136719 z M 37.03125 50.117188 C 36.061307 50.04152 34.927287 50.502746 33.078125 51.458984 C 28.730413 53.707273 28.006355 60.723478 31.810547 63.75 C 34.212272 65.660754 36.838654 65.25119 39.544922 62.544922 C 42.575185 59.514658 42.779828 54.779828 40 52 C 38.806386 50.806386 38.001193 50.192855 37.03125 50.117188 z M 71.722656 56.996094 C 65.929319 56.814808 59.162217 58.331891 52.951172 61.595703 C 43.445831 66.590618 42.052274 69.405402 42.021484 83.683594 L 42 93.867188 L 44.75 94.226562 C 49.503419 94.84928 63.204486 93.915685 70.732422 92.455078 C 78.74672 90.900107 87.411449 86.975815 88.375 84.464844 C 90.006126 80.214196 87.830807 67.442849 84.648438 62.585938 C 82.335128 59.055381 77.515993 57.177379 71.722656 56.996094 z " />
      <path
         id="path6"
         style="fill:#e19a7c"
         d="M 58.322266 3.4550781 C 54.598943 3.4550781 52.122541 8.2065201 50.185547 19.070312 C 49.422347 23.350784 49.25424 23.516486 43.058594 26.076172 C 39.568207 27.518199 35.934119 28.732478 34.984375 28.773438 C 34.034631 28.814398 30.299744 27.039583 26.683594 24.830078 C 13.989835 17.074069 9.7597074 16.825978 8.0292969 23.736328 C 6.4157044 30.180173 6.0396606 45.676502 7.2695312 55.015625 C 8.4108798 63.68255 8.3634168 64.340422 6.2285156 69.587891 C 3.3971512 76.547226 3.3406404 80.192567 6.0390625 81.636719 L 8.0839844 82.730469 L 6.0390625 84.908203 C 4.9142405 86.105521 3.9941406 87.583862 3.9941406 88.193359 C 3.9941406 89.69657 10.131278 94.285156 12.142578 94.285156 C 13.031914 94.285156 13.759766 94.527866 13.759766 94.826172 C 13.759766 95.124478 11.562774 98.795448 8.8769531 102.98242 C 6.7485385 106.30041 4.1540743 109.96388 3.3496094 111.35352 C 6.0189468 111.6717 12.44977 111.84067 23.988281 111.92578 C 42.031762 111.89859 62.268882 111.88965 83.458984 111.89844 C 98.199753 111.65166 96.716896 110.76694 95.417969 107.56445 C 94.420151 105.10435 100.35805 107.29641 101.48633 109.80469 C 102.03732 111.02961 102.64448 111.73975 103.125 111.90234 C 103.13882 111.90236 103.18545 111.90233 103.19922 111.90234 C 104.36946 111.90379 103.18506 108.93359 104.07422 108.93359 C 106.83023 108.93359 106.58133 106.84125 102.94922 99.492188 C 100.79819 95.139865 99.872719 92.566018 100.19141 91.818359 L 100.10156 91.634766 L 102.41602 90.597656 C 104.83092 89.147681 107.94004 86.7057 108.2168 85.861328 C 108.41472 85.257496 107.42071 83.390054 106.00781 81.710938 L 103.43945 78.658203 L 105.17578 78.658203 C 105.33184 78.151478 106.25307 78 108 78 C 109.10544 78 109.80083 77.972653 110.24219 77.699219 C 110.43634 77.158865 110.45322 76.316944 110.45508 74.996094 C 110.45774 72.981728 109.72743 69.293748 108.83398 66.800781 C 107.2533 62.390305 107.26721 62.195497 109.31836 59.587891 C 112.02495 56.147028 111.97928 55.638067 108.68359 52.476562 C 103.6148 47.614125 87.40667 28.397783 85.046875 24.453125 C 80.366732 16.629749 74.161786 10.454658 67.427734 6.9160156 C 63.805705 5.0126925 59.708533 3.4550781 58.322266 3.4550781 z M 57.744141 3.9980469 L 61.923828 5.4726562 C 64.222342 6.2836191 67.316436 7.6805409 68.800781 8.5761719 C 71.576311 10.250884 78.808194 18.727705 80.917969 22.78125 C 82.031673 24.921029 81.945862 25.024465 79.552734 24.423828 C 75.804622 23.483111 76.425168 24.473271 81.419922 27.400391 C 85.264564 29.653501 91.11346 35.528674 104.63477 50.720703 C 106.4852 52.799787 107.99957 55.014509 108 55.644531 C 108.00043 56.274555 106.0875 57.737489 103.75 58.894531 C 100.19213 60.655646 99.98305 61.656733 103.28906 61.105469 C 104.19882 60.953769 108.97563 70.814649 108.99023 72.875 C 108.99996 74.243906 107.34564 74.138017 101.09375 72.367188 C 99.402044 71.888013 98.899092 72.026773 99.400391 72.837891 C 99.792576 73.472461 100.30107 74.970778 100.53125 76.166016 C 100.76143 77.361252 102.19847 79.653487 103.72461 81.259766 L 106.5 84.179688 L 103.03711 87.089844 C 100.91064 88.877195 98.425319 90 96.595703 90 C 94.053476 90 93.84466 90.183237 95.166016 91.25 C 96.017593 91.937499 98.105043 95.537504 99.804688 99.25 C 101.50433 102.9625 102.72734 106 102.52344 106 C 101.26584 106 96.094325 100.59133 94.472656 97.580078 C 92.322131 93.586793 91.517499 93.408956 84.800781 95.447266 C 82.216652 96.231467 74.791643 97.361857 68.300781 97.958984 C 54.347835 99.242589 25 99.973552 25 99.037109 C 25 98.677355 25.619866 97.535378 26.376953 96.5 C 27.669319 94.732584 27.164929 94.423623 18.126953 91.435547 C 3.6109023 86.636346 4.3295517 87.119271 7.6601562 84.394531 C 9.2217574 83.116999 11.124422 82.054936 11.888672 82.035156 C 12.652922 82.015376 11.527921 80.823457 9.3886719 79.384766 C 7.2494233 77.946074 5.3234185 76.606341 5.1074219 76.408203 C 4.8914253 76.210066 5.7419126 73.22827 6.9980469 69.783203 C 9.2264363 63.671634 9.2517165 63.179529 8.0449219 49.509766 C 6.6518439 33.729905 7.4365023 23.382166 10.15625 21.669922 C 12.676617 20.083199 18.593435 22.258325 27.626953 28.089844 C 31.957369 30.885311 36.998919 34.933138 38.832031 37.085938 C 42.615831 41.529616 46.260682 42.251338 48.048828 38.910156 C 49.366973 36.44718 47.952451 32.172975 44.908203 29.417969 C 43.85846 28.467965 43 27.31046 43 26.845703 C 43 24.908919 45.85019 26.277 50.755859 30.568359 C 54.733899 34.048252 56.634393 35.060276 58.738281 34.818359 C 62.306446 34.408071 62.868124 31.135942 60.158203 26.542969 C 57.949516 22.799522 58.217834 22 61.683594 22 L 64.033203 22 L 61.541016 17.082031 C 60.17052 14.377488 58.755615 10.327911 58.396484 8.0820312 L 57.744141 3.9980469 z M 10.744141 29.988281 C 10.350547 29.999968 11.479333 32.93674 14.173828 38.308594 C 16.745052 43.43469 16.855193 43.992928 15.109375 43.058594 C 14.021302 42.476274 12.427563 42 11.566406 42 C 9.5663615 42 9.5296205 45.36477 11.511719 47.009766 C 12.852785 48.122753 12.832922 48.400275 11.347656 49.486328 C 10.354182 50.212774 9.9320063 51.379187 10.306641 52.355469 C 11.009237 54.186405 12.141593 54.618384 11.75 52.90625 C 11.6125 52.305069 12.400001 51.292567 13.5 50.65625 C 14.599999 50.019933 15.707432 49.366918 15.960938 49.205078 C 16.214443 49.043239 15.089442 47.823067 13.460938 46.492188 C 10.123068 43.764346 11.585745 43.217441 16.048828 45.525391 C 18.781831 46.938682 18.998223 46.920266 18.970703 45.275391 C 18.954362 44.298768 16.901162 39.899996 14.408203 35.5 C 12.277749 31.739814 11.050269 29.979192 10.744141 29.988281 z M 83.738281 39.136719 C 82.618639 38.981765 81.669257 39.475274 80.572266 40.572266 C 78.194427 42.950103 78.656128 46.584738 81.634766 48.927734 C 88.736092 54.513638 94.831237 47.402045 87.923828 41.589844 C 86.147549 40.095204 84.857924 39.291673 83.738281 39.136719 z M 37.03125 50.117188 C 36.061307 50.04152 34.927287 50.502746 33.078125 51.458984 C 28.730413 53.707273 28.006355 60.723478 31.810547 63.75 C 34.212272 65.660754 36.838654 65.25119 39.544922 62.544922 C 42.575185 59.514658 42.779828 54.779828 40 52 C 38.806386 50.806386 38.001193 50.192855 37.03125 50.117188 z M 71.701172 57.044922 C 65.890931 56.859402 59.121023 58.353507 52.988281 61.576172 C 43.618213 66.500003 42 69.764403 42 83.75 L 42 93.867188 L 44.75 94.226562 C 49.503419 94.84928 63.204486 93.915685 70.732422 92.455078 C 78.74672 90.900107 87.411449 86.975815 88.375 84.464844 C 90.006126 80.214196 87.830807 67.442849 84.648438 62.585938 C 82.3607 59.094409 77.511413 57.230441 71.701172 57.044922 z M 59.451172 67.138672 C 60.468641 67.154874 61.610598 67.234416 62.972656 67.361328 C 73.949405 68.384108 85.203246 75.203007 86.193359 81.431641 C 86.582418 83.879138 81.458031 87.490445 74.783203 89.472656 C 69.787068 90.956349 48.91539 92.324941 45.75 91.376953 C 44.273022 90.934621 44 89.606824 44 82.861328 C 44 78.465504 44.432888 74.060888 44.960938 73.074219 C 45.488987 72.08755 48.288944 70.26087 51.183594 69.015625 C 54.478504 67.598193 56.398765 67.090065 59.451172 67.138672 z " />
      <path
         id="path5"
         style="fill:#cc6866"
         d="M 58.322266 3.4550781 C 54.598943 3.4550781 52.122541 8.2065201 50.185547 19.070312 C 49.422347 23.350784 49.25424 23.516486 43.058594 26.076172 C 39.568207 27.518199 35.934119 28.732478 34.984375 28.773438 C 34.034631 28.814398 30.299744 27.039583 26.683594 24.830078 C 13.989835 17.074069 9.7597074 16.825978 8.0292969 23.736328 C 6.4157044 30.180173 6.0396606 45.676502 7.2695312 55.015625 C 8.4108798 63.68255 8.3634168 64.340422 6.2285156 69.587891 C 3.3971512 76.547226 3.3406404 80.192567 6.0390625 81.636719 L 8.0839844 82.730469 L 6.0390625 84.908203 C 4.9142405 86.105521 3.9941406 87.583862 3.9941406 88.193359 C 3.9941406 89.69657 10.131278 94.285156 12.142578 94.285156 C 13.031914 94.285156 13.759766 94.527866 13.759766 94.826172 C 13.759766 95.124478 11.562774 98.795448 8.8769531 102.98242 C 6.1911317 107.16936 2.7150183 111.96798 3.1035156 111.95898 C 3.1396186 111.95813 3.9524797 111.95787 4.0039062 111.95703 C 5.7362134 111.74756 6.7180092 110.52883 8.890625 106.25 C 10.496414 103.0875 12.977172 98.792001 14.404297 96.705078 C 15.831422 94.618155 17 92.705653 17 92.455078 C 17 92.204503 15.762498 91.998194 14.25 91.996094 C 11.314829 91.992104 5 88.647929 5 87.097656 C 5 86.585446 6.2022826 85.291226 7.671875 84.220703 L 10.34375 82.273438 L 7.421875 80.847656 C 3.9597413 79.157736 3.9161383 76.389915 7.2304688 68.685547 C 9.2258353 64.047192 9.2574693 63.336062 8.015625 51.15625 C 6.3834116 35.14776 7.2384225 23.647266 10.214844 21.5625 C 12.011517 20.304061 12.830364 20.355656 16.992188 21.996094 C 23.112452 24.408477 34.664473 31.926428 38.5 35.992188 C 42.244786 39.96176 44.411233 41.162476 46.427734 40.388672 C 48.785628 39.483863 48.339903 34.780534 45.5 30.595703 C 42.525893 26.213111 42.490778 26 44.75 26 C 45.712743 26 48.45041 27.781968 50.832031 29.958984 C 55.850966 34.546743 58.516189 35.647586 60.539062 33.96875 C 62.361521 32.456244 61.488168 28.325719 58.695312 25.25 C 57.571653 24.012501 57.067799 22.982957 57.576172 22.960938 C 58.084544 22.938918 57.216394 22.224601 55.648438 21.375 C 52.953267 19.914614 52.836145 19.576514 53.494141 15.166016 C 54.338894 9.5036963 56.525585 4 57.929688 4 C 59.981537 4 67.570879 7.353827 70.636719 9.6152344 C 73.995256 12.09254 83.538379 24.793652 82.683594 25.648438 C 82.401309 25.930721 81.233042 25.658833 80.085938 25.044922 C 78.938834 24.431009 78 24.341126 78 24.84375 C 78 25.346374 79.342856 26.3142 80.984375 26.994141 C 85.757163 28.971094 108 52.32169 108 55.355469 C 108 56.197552 106.71021 57.647484 105.13477 58.578125 C 102.29374 60.256363 102.28652 60.286515 104.22266 62.222656 C 106.67368 64.673686 109 70.150014 109 73.46875 C 109 75.809084 108.65418 76 104.42773 76 L 99.853516 76 L 102.92773 79.728516 C 104.61777 81.778828 106 83.991657 106 84.646484 C 106 86.315656 99.748797 89.9972 96.882812 90.015625 C 95.572728 90.024047 94.950001 90.361547 95.5 90.765625 C 97.288637 92.079714 103.04641 106.35398 102.03906 106.97656 C 100.99881 107.61947 101.68964 111.28514 102.80078 111.90234 C 102.87605 111.90243 103.12529 111.90225 103.19922 111.90234 C 104.36946 111.90379 103.18506 108.93359 104.07422 108.93359 C 106.83023 108.93359 106.58133 106.84125 102.94922 99.492188 C 100.65735 94.854889 99.776035 92.264146 100.28906 91.722656 L 100.24609 91.626953 L 102.70312 90.412109 C 105.07158 88.947901 107.9507 86.673189 108.2168 85.861328 C 108.41472 85.257496 107.42071 83.390054 106.00781 81.710938 L 103.43945 78.658203 L 104.25586 78.658203 L 103.625 78 L 107.3125 78 C 108.85376 78 109.72795 77.976438 110.25 77.660156 C 110.43326 77.118593 110.45326 76.290317 110.45508 74.996094 C 110.45774 72.981728 109.72743 69.293748 108.83398 66.800781 C 107.60041 63.358831 107.35455 62.47493 108.27344 61.017578 C 108.41419 60.239248 108.96179 59.606002 110.01367 58.486328 C 110.29677 58.184989 110.48452 57.932499 110.69531 57.667969 C 111.81972 55.799704 111.24116 54.930001 108.68359 52.476562 C 103.6148 47.614125 87.40667 28.397783 85.046875 24.453125 C 80.366732 16.629749 74.161786 10.454658 67.427734 6.9160156 C 63.805705 5.0126925 59.708533 3.4550781 58.322266 3.4550781 z M 11.15625 31.509766 C 10.985091 31.704441 11.936627 33.911381 14.044922 38.087891 C 16.83991 43.624731 16.915354 44.025258 14.966797 42.982422 C 10.999435 40.859154 8.0978474 44.175719 11.472656 46.976562 C 12.768817 48.052279 12.768817 48.373761 11.472656 49.669922 C 10.662991 50.479588 10 51.659876 10 52.292969 C 10 52.926061 10.687294 52.463012 11.527344 51.263672 C 12.518135 49.849119 13.659883 49.298063 14.777344 49.695312 C 15.88743 50.089941 15.433236 49.140916 13.5 47.023438 L 10.5 43.736328 L 13 44.240234 C 14.374999 44.516907 16.287501 45.073944 17.25 45.478516 C 20.053603 46.656965 19.380425 44.120187 15 37 C 12.620402 33.132068 11.327409 31.31509 11.15625 31.509766 z M 84.076172 39.677734 C 83.063095 39.649104 82.050691 39.977182 81.064453 40.667969 C 78.197992 42.675717 78.457188 46.428251 81.634766 48.927734 C 84.781338 51.402829 87.292285 51.563185 89.427734 49.427734 C 91.504277 47.351192 91.409817 45.791603 89.023438 42.757812 C 87.453961 40.762547 85.764634 39.725452 84.076172 39.677734 z M 36.177734 51.015625 C 32.914028 51.034283 31.66212 51.809708 30.09375 54.787109 C 28.765286 57.309071 29.410764 60.559391 31.773438 63.25 C 33.910202 65.683345 36.656 65.433843 39.544922 62.544922 C 44.073944 58.015898 42.019514 50.982225 36.177734 51.015625 z M 78.947266 57.5 L 69.712891 57.615234 C 61.537726 57.717223 59.789428 58.079372 54.488281 60.765625 C 43.81398 66.17462 42 69.658045 42 84.744141 L 42 94 L 53.052734 94 C 65.380425 94 75.935203 92.042222 83.125 88.421875 C 88.110862 85.911297 89.008545 84.570111 88.984375 79.667969 C 88.94908 72.50944 86.294745 64.827787 82.574219 61.117188 L 78.947266 57.5 z M 59.125 66.560547 C 60.471 66.551659 61.981172 66.751906 64.152344 67.101562 C 75.011786 68.850425 83.434445 73.808099 85.976562 79.945312 C 86.986702 82.384006 86.961214 83.181364 85.835938 84.306641 C 83.859205 86.283373 80.571028 87.9168 75.195312 89.591797 C 69.436108 91.386283 47.088899 92.537843 45.068359 91.144531 C 44.030808 90.429063 43.685305 88.278944 43.810547 83.328125 C 44.100428 71.869134 44.296522 71.495068 51.470703 68.623047 C 55.095924 67.171771 56.881666 66.57536 59.125 66.560547 z " />
      <path
         id="path4"
         style="fill:#a1665c"
         d="M 58.322266 3.4550781 C 54.598943 3.4550781 52.122541 8.2065201 50.185547 19.070312 C 49.422347 23.350784 49.25424 23.516486 43.058594 26.076172 C 39.568207 27.518199 35.934119 28.732478 34.984375 28.773438 C 34.034631 28.814398 30.299744 27.039583 26.683594 24.830078 C 13.989835 17.074069 9.7597074 16.825978 8.0292969 23.736328 C 6.4157044 30.180173 6.0396606 45.676502 7.2695312 55.015625 C 8.4108798 63.68255 8.3634168 64.340422 6.2285156 69.587891 C 3.3971512 76.547226 3.3406404 80.192567 6.0390625 81.636719 L 8.0839844 82.730469 L 6.0390625 84.908203 C 4.9142405 86.105521 3.9941406 87.583862 3.9941406 88.193359 C 3.9941406 89.69657 10.131278 94.285156 12.142578 94.285156 C 13.031914 94.285156 13.759766 94.527866 13.759766 94.826172 C 13.759766 95.124478 11.562774 98.795448 8.8769531 102.98242 C 6.1911317 107.16936 2.7150183 111.96798 3.1035156 111.95898 C 3.1247388 111.95848 3.606274 111.95948 3.6328125 111.95898 C 5.1645474 111.75304 6.2783182 110.52797 8.0019531 107.25391 C 9.3760074 104.64389 11.962502 100.32454 13.75 97.654297 C 15.537498 94.984059 17 92.620121 17 92.400391 C 17 92.18066 15.450969 92 13.556641 92 C 11.293074 92 9.1506004 91.139733 7.3066406 89.492188 L 4.5 86.986328 L 7.2089844 84.738281 L 9.9179688 82.490234 L 6.9316406 80.775391 C 3.561763 78.841347 3.6012211 77.436792 7.2714844 68.701172 C 9.185017 64.146758 9.2233792 63.290884 7.9960938 51.958984 C 6.3623843 36.874449 7.154186 24.400502 9.921875 21.632812 C 11.858607 19.696081 11.915236 19.697643 16.910156 21.773438 C 19.679797 22.924448 23.950854 25.246925 26.402344 26.933594 C 28.853833 28.620263 31.750703 30 32.837891 30 C 33.985105 30 36.570446 32.098166 39 35 C 43.20747 40.02536 46.537509 41.367273 47.644531 38.482422 C 48.470693 36.329477 46.159225 31.268793 43.332031 29.044922 C 40.770726 27.030198 40.982919 26.639023 45.181641 25.636719 C 47.489653 25.085758 48.377628 25.623247 51.552734 29.498047 C 57.74008 37.048886 63.826401 34.869874 58.601562 26.974609 C 56.910628 24.419435 56.42374 22.972615 57.236328 22.921875 C 57.93163 22.878454 57.262498 22.390303 55.75 21.837891 C 53.665093 21.076417 53 20.171317 53 18.097656 C 53 13.850902 55.945499 4.9580965 57.556641 4.3398438 C 59.434781 3.6191335 66.613406 6.4946994 70.71875 9.6113281 C 74.225073 12.273202 83.572972 24.761011 82.707031 25.626953 C 82.412791 25.921193 81.233042 25.658833 80.085938 25.044922 C 78.938834 24.431009 78 24.341126 78 24.84375 C 78 25.346374 79.362032 26.321923 81.027344 27.011719 C 85.880657 29.022027 108 52.310587 108 55.410156 C 108 56.301077 106.5375 57.92186 104.75 59.011719 C 102.9625 60.101578 102.175 61.006278 103 61.023438 C 104.94385 61.063869 109 69.115401 109 72.933594 C 109 75.725231 108.74928 75.907509 104.50391 76.195312 L 100.00781 76.5 L 103.00391 79.695312 C 104.65168 81.452983 106 83.553311 106 84.363281 C 106 85.884088 99.667084 90.333984 97.501953 90.333984 C 96.181282 90.333984 99.677946 100.3324 102.50977 104.6543 C 103.35499 105.94429 103.58612 107 103.02344 107 C 101.70587 107 101.68654 110.68824 103 111.5 C 103.23875 111.64756 103.45061 111.66203 103.62305 111.59961 C 103.97475 110.85916 103.35436 108.93359 104.07422 108.93359 C 106.83023 108.93359 106.58133 106.84125 102.94922 99.492188 C 100.65735 94.854889 99.776035 92.264146 100.28906 91.722656 L 100.24609 91.626953 L 102.70312 90.412109 C 105.07158 88.947901 107.9507 86.673189 108.2168 85.861328 C 108.41472 85.257496 107.42071 83.390054 106.00781 81.710938 L 103.43945 78.658203 L 104.25586 78.658203 L 103.625 78 L 107.3125 78 C 108.85376 78 109.72795 77.976438 110.25 77.660156 C 110.43326 77.118593 110.45326 76.290317 110.45508 74.996094 C 110.45774 72.981728 109.72743 69.293748 108.83398 66.800781 C 107.60041 63.358831 107.35455 62.47493 108.27344 61.017578 C 108.41419 60.239248 108.96179 59.606002 110.01367 58.486328 C 110.29677 58.184989 110.48452 57.932499 110.69531 57.667969 C 111.81972 55.799704 111.24116 54.930001 108.68359 52.476562 C 103.6148 47.614125 87.40667 28.397783 85.046875 24.453125 C 80.366732 16.629749 74.161786 10.454658 67.427734 6.9160156 C 63.805705 5.0126925 59.708533 3.4550781 58.322266 3.4550781 z M 12.111328 33.179688 C 12.058198 33.168541 12.02808 33.200917 12.025391 33.283203 C 12.011313 33.713987 13.127929 36.29055 14.505859 39.009766 L 17.009766 43.955078 L 14.421875 42.970703 C 10.265977 41.390634 8.2081456 44.268415 11.525391 47.021484 C 12.884442 48.149397 12.857205 48.515481 11.275391 50.392578 C 9.5379811 52.454318 9.5426069 52.46587 11.5 50.880859 C 12.599999 49.990128 14.175001 49.486106 15 49.761719 C 15.824999 50.037331 15.256528 48.935512 13.736328 47.3125 C 10.46759 43.822691 11.111131 42.488661 15.076172 44.539062 C 18.538112 46.329302 19 46.348828 19 44.703125 C 19 43.402786 12.908283 33.346884 12.111328 33.179688 z M 84.076172 39.677734 C 83.063095 39.649104 82.050691 39.977182 81.064453 40.667969 C 78.197992 42.675717 78.457188 46.428251 81.634766 48.927734 C 84.781338 51.402829 87.292285 51.563185 89.427734 49.427734 C 91.504277 47.351192 91.409817 45.791603 89.023438 42.757812 C 87.453961 40.762547 85.764634 39.725452 84.076172 39.677734 z M 36.095703 51.015625 C 32.915754 51.034389 31.653423 51.826219 30.09375 54.787109 C 28.765286 57.309071 29.410764 60.559391 31.773438 63.25 C 33.910202 65.683345 36.656 65.433843 39.544922 62.544922 C 43.947937 58.141905 41.806256 50.981925 36.095703 51.015625 z M 78.947266 57.5 L 69.712891 57.615234 C 61.537726 57.717223 59.789428 58.079372 54.488281 60.765625 C 43.81398 66.17462 42 69.658045 42 84.744141 L 42 94 L 53.052734 94 C 65.380425 94 75.935203 92.042222 83.125 88.421875 C 88.110862 85.911297 89.008545 84.570111 88.984375 79.667969 C 88.94908 72.50944 86.294745 64.827787 82.574219 61.117188 L 78.947266 57.5 z M 68.541016 59.5 C 82.501778 59.499716 86.317984 63.223757 86.435547 76.964844 L 86.5 84.431641 L 82.316406 86.753906 C 80.015365 88.031466 75.065359 89.727133 71.316406 90.521484 C 67.567454 91.315836 60.1283 91.972822 54.785156 91.982422 C 42.933859 92.003605 42.391369 91.463082 43.396484 80.648438 C 44.278527 71.157999 46.982987 66.55407 54 62.599609 C 59.02514 59.767675 60.279888 59.500168 68.541016 59.5 z " />
      <path
         style="display:inline;fill:#692b2a"
         d="m 2,111.42322 c 0,-0.39789 2.25,-4.23099 5,-8.51799 2.75,-4.287011 5,-8.044462 5,-8.349896 C 12,94.2499 10.701019,94.503597 9.7904342,94.503597 7.7310715,94.503597 2,89.302689 2,87.76356 2,87.139498 2.9422998,85.62587 4.0939996,84.399942 L 6.1879992,82.170982 4.0939996,81.050307 C 1.3310978,79.571647 1.3901523,75.838719 4.2891733,68.713088 6.4750886,63.34023 6.5231434,62.667238 5.3545218,53.793214 4.0952631,44.230929 4.4810064,28.364827 6.1331563,21.767006 7.9049156,14.691529 12.234851,14.945384 25.23193,22.886725 c 3.702561,2.262301 7.527561,4.078959 8.5,4.037018 0.972438,-0.04194 4.69208,-1.28429 8.26587,-2.760775 6.343692,-2.62085 6.516783,-2.790989 7.298219,-7.173743 C 51.279298,5.8658384 53.814526,1 57.62682,1 59.046212,1 63.241826,2.5944757 66.950406,4.5432794 73.845368,8.1664792 80.197605,14.489681 84.989582,22.5 c 2.416183,4.038917 19.012548,23.715004 24.202468,28.693629 3.37444,3.237052 3.91941,3.899893 1.14815,7.422977 -2.10016,2.669916 -2.1135,3.866063 -0.99359,7.242419 0.85366,2.57363 1.66106,6.328475 1.65834,8.390975 -0.005,3.635821 -0.043,4.604633 -3.52262,4.604633 h -3.5889 l 2.55905,2.271258 c 1.68048,1.49149 2.46445,3.631739 2.2618,4.25 -0.37528,1.144899 -5.18563,5.971873 -7.34418,6.691391 -0.7888,0.262931 -0.56728,2.172607 1.94983,7.265548 6.36309,11.59962 1.03599,9.37488 0.96295,11.61861 -0.0499,1.53211 -0.22732,1.32664 -1.36323,0.27104 -1.03851,-0.96511 -1.10522,-1.69876 -0.27279,-3 0.86551,-1.35296 0.51325,-2.90237 -1.64207,-7.22248 -4.445747,-8.911044 -4.463545,-9.298136 -0.52504,-11.419159 1.90936,-1.02826 4.23764,-2.716072 5.17396,-3.750693 1.62166,-1.791906 1.51832,-2.069645 -2.1786,-5.855639 L 99.594104,76 H 104.29705 109 l -0.0312,-3.75 c -0.0182,-2.18977 -1.05625,-5.414245 -2.49488,-7.75 -2.96785,-4.818594 -3.00375,-5.197061 -0.56629,-5.970679 4.20101,-1.333349 3.11685,-3.579769 -7.550075,-15.644112 C 92.516771,36.279269 86.699071,30.193705 85.429323,29.361734 84.159575,28.529763 83.334051,27.293052 83.594824,26.613488 84.085973,25.333574 79.002087,17.982919 73.59894,12.160708 69.969157,8.2494007 62.138773,4 58.561179,4 56.386066,4 55.845935,4.7221495 54.463025,9.4791946 52.266116,17.036295 52.78063,21.242348 56,22.043664 c 2.12513,0.528954 1.825234,0.731607 -2,1.351485 -2.475,0.401074 -8.57955,2.137411 -13.565666,3.858527 l -9.065666,3.129303 -3.476526,-2.651676 c -5.170406,-3.94366 -14.549528,-7.97482 -16.853381,-7.243605 -1.185614,0.376299 -2.3868822,2.104863 -3.0020591,4.319811 -1.3542737,4.876069 -1.3165346,21.229332 0.070513,30.555186 1.0476376,7.04382 0.9669247,7.795063 -1.5,13.961404 -3.3484875,8.369901 -3.3340155,10.449074 0.08177,11.747753 l 2.6889852,1.02235 -2.6889852,2.493368 C 5.2100433,85.958922 4,87.294341 4,87.555167 c 0,1.183066 6.778892,4.437736 9.25,4.441095 1.5125,0.0021 2.722982,0.341238 2.68996,0.753738 C 15.763707,94.951705 5.0849227,111.54859 3.6677846,111.82332 2.7505031,112.00115 2,111.8211 2,111.42322 Z M 42.666667,93.333333 c -0.977225,-0.977224 -0.768002,-15.190683 0.290808,-19.755939 1.342395,-5.787988 3.921361,-8.712367 10.776319,-12.219641 4.256586,-2.177843 8.291989,-3.358212 13.148245,-3.845907 13.174125,-1.323026 18.209472,2.381406 20.895788,15.372728 1.510164,7.30332 1.532197,8.479141 0.204267,10.900882 C 84.825639,89.54187 69.43065,94 52.708825,94 47.552305,94 43.033333,93.7 42.666667,93.333333 Z M 73,90.444495 C 76.575,89.605226 81.1875,87.805493 83.25,86.445087 86.923663,84.021974 87,83.843591 87,77.682156 87,72.925168 86.371088,70.130626 84.418874,66.213043 82.183646,61.727525 81.282925,60.884 77.697603,59.918573 65.979368,56.76318 50.450597,61.29502 46.030082,69.160266 43.293798,74.028825 41.948231,88.02777 43.981112,90.477241 45.703297,92.552348 64.109738,92.531577 73,90.444495 Z M 32.834423,63.61131 c -3.048402,-1.511253 -3.791115,-7.896696 -1.245649,-10.709404 2.369785,-2.618583 6.911007,-2.454157 8.854522,0.3206 4.148365,5.922621 -1.383218,13.475189 -7.608873,10.388804 z M 81,48 C 78.731474,45.731474 78.564566,44.682133 80.035184,41.934259 80.703057,40.686327 82.127579,40 84.049882,40 c 3.737856,0 7.455995,5.186244 5.858335,8.171497 C 88.587302,50.639651 83.542531,50.542531 81,48 Z M 16.584855,43.862701 C 16.858138,43.42052 16.361257,41.58302 15.480674,39.779368 L 13.879615,36.5 15.886175,39 c 2.55027,3.177414 3.218243,5.666667 1.52061,5.666667 -0.725344,0 -1.095213,-0.361785 -0.82193,-0.803966 z"
         id="path3"
         sodipodi:nodetypes="sssssscsssssssssssssscscssscsssssssccccssssssssssscsssssscsscsssssssssssssssssssssssssssssscsss" />
      <path
         style="fill:#381c1b"
         d="M 42.75,93.444682 C 42.3375,93.016774 42.07767,89.479167 42.172599,85.583333 L 42.345198,78.5 42.922599,85 43.5,91.5 50,92.265429 c 5.685814,0.669552 11.906507,0.218889 24.5,-1.77492 1.65,-0.261229 0.75,0.22568 -2,1.082021 -5.418743,1.687377 -28.526335,3.141526 -29.75,1.872152 z M 81.872445,87.70823 C 82.627289,86.768704 83.70268,86 84.262202,86 c 0.559522,0 1.657692,-0.7875 2.440377,-1.75 1.044331,-1.284257 1.318444,-1.353231 1.029964,-0.259166 -0.216204,0.819959 -1.931974,2.376162 -3.812821,3.45823 -2.885839,1.660248 -3.205457,1.700709 -2.047277,0.259166 z m 5.778218,-7.176205 C 87.34084,79.724639 87.517695,78.798081 88.043674,78.473008 88.569653,78.147935 89,78.808524 89,79.940983 c 0,2.414565 -0.556111,2.658155 -1.349337,0.591042 z M 87.157895,73 c 0,-1.375 0.226973,-1.9375 0.504386,-1.25 0.277412,0.6875 0.277412,1.8125 0,2.5 -0.277413,0.6875 -0.504386,0.125 -0.504386,-1.25 z M 84.616644,65.787894 C 82.190834,60.634008 77.839728,58.731452 68.5,58.740763 l -7,0.007 5,-0.872949 c 2.75,-0.480122 6.723894,-0.602661 8.830876,-0.272309 4.509176,0.706991 10.180259,5.313586 11.112091,9.026301 0.990583,3.9468 0.271236,3.615592 -1.826323,-0.84089 z M 46.43257,66.109104 C 47.146025,64.954709 51,62.626427 51,63.349806 c 0,0.231096 -1.180406,1.193606 -2.623124,2.138911 -1.442718,0.945305 -2.317655,1.224479 -1.944306,0.620387 z M 31.035184,62.065741 C 27.579497,55.608732 33.849013,48.121168 39.254137,52.25 c 2.789756,2.131021 3.104005,6.024979 0.729808,9.043281 -2.597524,3.302216 -7.374207,3.714541 -8.948761,0.77246 z M 81.237552,48.006686 C 80.006898,46.860158 79,45.296762 79,44.532473 79,42.539534 81.819682,40 84.032473,40 c 2.781207,0 6.106244,4.031596 5.761228,6.985469 -0.398858,3.414837 -5.352303,4.006054 -8.556149,1.021217 z"
         id="path2" />
    </g>
  </g>
</svg>
